date, pm25, pm10, o3, no2, so2, co
2021/5/1, 93, 56, , 9, 6, 3
2021/5/2, 87, 59, , 17, 7, 5
2021/5/3, 112, 98, , 15, 8, 7
2021/5/4, 147, 75, , 13, 9, 4
2021/5/5, 100, 110, , 10, 6, 3
2021/5/6, 117, 181, , 8, 5, 2
2021/5/7, 182, 123, , 13, 8, 4
2021/5/8, 167, 100, , 11, 10, 7
2021/5/9, 155, , , , , 
2021/4/1, 134, 68, , 15, 6, 6
2021/4/2, 130, 55, , 10, 4, 7
2021/4/3, 126, 60, , 12, 9, 5
2021/4/4, 116, 67, , 19, 8, 4
2021/4/5, 124, 80, , 21, 8, 6
2021/4/6, 153, 101, , 26, 16, 8
2021/4/7, 170, 106, , 22, 11, 8
2021/4/8, 177, 84, , 19, 5, 5
2021/4/9, 146, 69, , 15, 6, 4
2021/4/10, 124, 70, , 18, 6, 4
2021/4/11, 122, 85, , 16, 9, 6
2021/4/12, 161, 68, , 8, 5, 3
2021/4/13, 90, 64, , 15, 5, 3
2021/4/14, 110, 127, , 12, 6, 4
2021/4/15, 148, 375, , 11, 5, 3
2021/4/16, 211, 97, , 9, 6, 3
2021/4/17, 109, 76, , 11, 5, 2
2021/4/18, 97, 72, , 15, 6, 3
2021/4/19, 102, 53, , 11, 4, 4
2021/4/20, 106, 51, , 9, 3, 5
2021/4/21, 114, 65, , 13, 5, 8
2021/4/22, 157, 72, , 14, 5, 6
2021/4/23, 154, 56, , 6, 3, 4
2021/4/24, 99, 52, , 8, 4, 4
2021/4/25, 112, 64, , 13, 5, 5
2021/4/26, 134, 78, , 14, 7, 6
2021/4/27, 124, 74, , 10, 7, 3
2021/4/28, 94, 91, , 12, 10, 3
2021/4/29, 104, 109, , 14, 8, 4
2021/4/30, 126, 63, , 11, 7, 3
2021/3/1, 101, 66, 34, 12, 5, 7
2021/3/2, 139, 65, 39, 12, 5, 5
2021/3/3, 128, 75, 45, 17, 9, 7
2021/3/4, 144, 89, , 15, 9, 7
2021/3/5, 159, 58, , 9, 4, 4
2021/3/6, 111, 64, , 13, 5, 5
2021/3/7, 122, 95, , 17, 6, 6
2021/3/8, 169, 93, , 17, 6, 7
2021/3/9, 172, 75, , 20, 4, 8
2021/3/10, 153, 71, , 18, 6, 6
2021/3/11, 158, 76, , 11, 3, 5
2021/3/12, 160, 73, , 13, 5, 5
2021/3/13, 157, 82, , 17, 6, 7
2021/3/14, 165, 160, , 16, 8, 12
2021/3/15, 223, 516, , 11, 4, 2
2021/3/16, 179, 172, , 20, 7, 4
2021/3/17, 152, 95, , 18, 4, 7
2021/3/18, 152, 92, , 14, 6, 9
2021/3/19, 159, 107, , 20, 6, 10
2021/3/20, 171, 100, , 13, 6, 4
2021/3/21, 103, 71, , 18, 9, 5
2021/3/22, 96, 80, , 17, 8, 5
2021/3/23, 111, 110, , 22, 9, 7
2021/3/24, 154, 109, , 20, 8, 7
2021/3/25, 152, 77, , 22, 9, 7
2021/3/26, 148, 97, , 17, 8, 9
2021/3/27, 179, 519, , 19, 10, 9
2021/3/28, 238, 634, , 15, 9, 7
2021/3/29, 220, 158, , 22, 9, 5
2021/3/30, 141, 120, , 21, 9, 4
2021/3/31, 142, 94, , 21, 11, 4
2021/2/1, 125, 82, 26, 15, 9, 6
2021/2/2, 118, 114, 26, 27, 11, 14
2021/2/3, 164, 118, 34, 27, 11, 13
2021/2/4, 170, 88, 37, 16, 11, 8
2021/2/5, 139, 74, 34, 15, 11, 7
2021/2/6, 114, 110, 33, 11, 9, 7
2021/2/7, 126, 57, 34, 8, 8, 6
2021/2/8, 104, 71, 39, 10, 6, 6
2021/2/9, 137, 104, 53, 21, 8, 10
2021/2/10, 172, 101, 51, 15, 8, 10
2021/2/11, 172, 96, 37, 10, 9, 7
2021/2/12, 176, 91, 19, 9, 8, 7
2021/2/13, 171, 101, 35, 7, 10, 12
2021/2/14, 190, 71, 27, 7, 7, 7
2021/2/15, 143, 67, 39, 7, 7, 6
2021/2/16, 130, 61, 35, 7, 8, 4
2021/2/17, 98, 88, 39, 16, 10, 9
2021/2/18, 158, 84, 43, 14, 9, 11
2021/2/19, 129, 71, 37, 12, 14, 6
2021/2/20, 106, 64, 38, 14, 12, 5
2021/2/21, 97, 108, 35, 14, 11, 5
2021/2/22, 137, 62, 34, 9, 6, 3
2021/2/23, 100, 74, 16, 14, 7, 6
2021/2/24, 130, , , , , 
2021/1/4, 194, 79, 16, 27, 12, 12
2021/1/5, 151, 103, 21, 22, 18, 11
2021/1/6, 134, 58, 24, 10, 6, 4
2021/1/7, 75, 48, 27, 9, 8, 5
2021/1/8, 68, 56, 21, 16, 11, 7
2021/1/9, 88, 71, 15, 23, 13, 11
2021/1/10, 118, 107, 28, 12, 10, 7
2021/1/11, 100, 157, 23, 18, 9, 8
2021/1/12, 130, 332, 23, 24, 14, 11
2021/1/13, 169, 239, 12, 39, 20, 18
2021/1/14, 181, 170, 13, 28, 14, 16
2021/1/15, 170, 140, 19, 23, 13, 10
2021/1/16, 164, 92, 27, 14, 10, 7
2021/1/17, 100, 80, 23, 22, 17, 8
2021/1/18, 115, 97, 19, 22, 10, 9
2021/1/19, 159, 103, 16, 27, 11, 15
2021/1/20, 176, 119, 17, 28, 8, 14
2021/1/21, 191, 142, 28, 31, 14, 24
2021/1/22, 224, 138, 34, 30, 12, 21
2021/1/23, 230, 155, 11, 36, 13, 22
2021/1/24, 245, 108, 27, 23, 9, 18
2021/1/25, 195, 113, 33, 27, 9, 15
2021/1/26, 198, 107, 36, 31, 12, 13
2021/1/27, 180, 112, 29, 11, 10, 3
2021/1/28, 98, 89, 29, 17, 8, 6
2021/1/29, 120, 74, 30, 20, 10, 9
2021/1/30, 125, 69, 29, 16, 8, 7
2021/1/31, 119, 94, 29, 15, 8, 7
2020/10/1, 144, 74, 19, 15, 7, 11
2020/10/2, 138, 43, 24, 13, 6, 6
2020/10/3, 82, 58, 18, 15, 6, 6
2020/10/4, 80, 54, 20, 17, 7, 7
2020/10/5, 83, 55, 8, 22, 8, 6
2020/10/6, 96, 50, 37, 18, 5, 5
2020/10/7, 79, 83, 41, 30, 6, 9
2020/10/8, 142, 96, 8, 33, 6, 12
2020/10/9, 160, 117, 9, 41, 8, 13
2020/10/10, 178, 124, 9, 32, 11, 14
2020/10/11, 185, 74, 23, 20, 8, 6
2020/10/12, 101, 71, 5, 22, 8, 9
2020/10/13, 135, 54, 28, 14, 2, 7
2020/10/14, 115, 64, 12, 15, 3, 8
2020/10/15, 138, 80, 33, 23, 5, 11
2020/10/16, 140, 99, 44, 25, 6, 11
2020/10/17, 171, 81, 30, 29, 6, 9
2020/10/18, 150, 89, 51, 28, 8, 9
2020/10/19, 163, 91, 44, 30, 6, 8
2020/10/20, 168, 123, 32, 25, 6, 8
2020/10/21, 156, 154, 39, 25, 8, 12
2020/10/22, 139, 90, 28, 23, 8, 9
2020/10/23, 102, 97, 33, 29, 7, 9
2020/10/24, 140, 106, 50, 32, 8, 10
2020/10/25, 159, 131, 70, 35, 9, 14
2020/10/26, 178, 106, 24, 29, 9, 11
2020/10/27, 146, 93, 9, 23, 7, 12
2020/10/28, 150, 93, 25, 24, 9, 11
2020/10/29, 160, 92, 49, 28, 12, 11
2020/10/30, 160, 97, 39, 20, 7, 10
2020/10/31, 165, 95, 26, 25, 10, 9
2020/11/1, 128, 81, 25, 21, 12, 8
2020/11/2, 112, 70, 20, 23, 7, 9
2020/11/3, 99, 75, 30, 23, 8, 7
2020/11/4, 115, 88, 17, 29, 9, 9
2020/11/5, 147, 85, 32, 22, 9, 7
2020/11/6, 131, 78, 32, 23, 9, 7
2020/11/7, 99, 78, 24, 21, 7, 6
2020/11/8, 96, 89, 26, 28, 10, 10
2020/11/9, 137, 120, 37, 36, 8, 11
2020/11/10, 169, 107, 44, 35, 6, 10
2020/11/11, 165, 113, 45, 34, 8, 10
2020/11/12, 175, 118, 41, 22, 12, 13
2020/11/13, 189, 122, 47, 31, 9, 11
2020/11/14, 188, 99, 42, 25, 6, 7
2020/11/15, 170, 134, 30, 23, 8, 12
2020/11/16, 211, 95, 16, 24, 5, 14
2020/11/17, 178, 37, 17, 14, 6, 11
2020/11/18, 80, 40, 25, 12, 6, 5
2020/11/19, 86, 53, 14, 14, 5, 5
2020/11/20, 115, 57, 15, 13, 4, 6
2020/11/21, 142, 59, 14, 17, 3, 7
2020/11/22, 145, 61, 10, 17, 4, 6
2020/11/23, 143, 57, 13, 17, 3, 7
2020/11/24, 138, 81, 3, 24, 6, 11
2020/11/25, 162, 93, 9, 27, 6, 13
2020/11/26, 181, 90, 7, 27, 8, 15
2020/11/27, 221, 72, 16, 22, 4, 6
2020/11/28, 155, 98, 8, 27, 6, 9
2020/11/29, 176, 124, 10, 28, 6, 11
2020/11/30, 220, 105, 4, 31, 6, 11
2020/12/1, 209, 92, 10, 23, 3, 8
2020/12/2, 188, 94, 17, 25, 5, 13
2020/12/3, 188, 101, 9, 25, 3, 10
2020/12/4, 181, 105, 23, 23, 5, 12
2020/12/5, 183, 100, 12, 26, 6, 10
2020/12/6, 204, 125, 10, 27, 8, 13
2020/12/7, 214, 72, 15, 24, 6, 5
2020/12/8, 145, 104, 9, 28, 7, 12
2020/12/9, 183, 140, 6, 31, 9, 18
2020/12/10, 221, 93, 5, 24, 7, 15
2020/12/11, 177, 88, 12, 28, 10, 16
2020/12/12, 166, 92, 18, 14, 5, 7
2020/12/13, 120, 54, 18, 14, 5, 4
2020/12/14, 84, 75, 12, 23, 8, 7
2020/12/15, 146, 92, 13, 27, 12, 14
2020/12/16, 202, 113, 6, 32, 11, 17
2020/12/17, 188, 95, 14, 27, 12, 14
2020/12/18, 166, 78, 15, 25, 7, 9
2020/12/19, 147, 99, 14, 29, 12, 16
2020/12/20, 170, 101, 16, 29, 11, 22
2020/12/21, 173, 95, 28, 29, 9, 14
2020/12/22, 172, 96, 21, 28, 9, 12
2020/12/23, 175, 113, 21, 29, 9, 14
2020/12/24, 174, 93, 21, 26, 8, 12
2020/12/25, 158, 106, 13, 34, 10, 14
2020/12/26, 177, 137, 15, 43, 14, 23
2020/12/27, 213, 174, 19, 37, 10, 20
2020/12/28, 282, 87, 17, 13, 4, 7
2020/12/29, 123, 47, 25, 13, 5, 4
2020/12/30, 71, 40, 20, 12, 6, 5
2020/12/31, 71, 63, 21, 20, 8, 9
2021/1/1, 107, 97, 8, 30, 19, 17
2021/1/2, 166, 110, 9, 38, 18, 19
2021/1/3, 185, 129, 8, 36, 16, 20
2020/7/1, 116, 66, , 9, 4, 6
2020/7/2, 119, 63, , 9, 3, 8
2020/7/3, 132, 61, , 8, 3, 5
2020/7/4, 123, 45, , 8, 5, 6
2020/7/5, 87, 69, , 20, 10, 10
2020/7/6, 110, 73, , 16, 6, 8
2020/7/7, 120, 66, , 13, 6, 6
2020/7/8, 120, 66, , 10, 4, 7
2020/7/9, 141, 70, , 8, 4, 5
2020/7/10, 148, 85, , 12, 5, 8
2020/7/11, 165, 32, , 6, 3, 3
2020/7/12, 71, 47, , 9, 4, 5
2020/7/13, 82, 67, 41, 16, 6, 6
2020/7/14, 122, 59, 84, 8, 2, 4
2020/7/15, 116, 56, 73, 11, 3, 5
2020/7/16, 91, 54, , 9, 4, 5
2020/7/17, 102, 58, , 9, 3, 4
2020/7/18, 106, 80, 54, 12, 7, 10
2020/7/19, 158, 68, 85, 11, 5, 7
2020/7/20, 128, 62, 53, 6, 2, 5
2020/7/21, 124, 48, 41, 5, 4, 4
2020/7/22, 93, 65, 91, 9, 5, 7
2020/7/23, 123, 67, 73, 13, 3, 6
2020/7/24, 116, 64, 80, 9, 4, 5
2020/7/25, 121, 51, 48, 7, 3, 4
2020/7/26, 96, 43, 46, 7, 2, 4
2020/7/27, 76, 51, 58, 12, 2, 6
2020/7/28, 106, 49, 55, 8, 2, 5
2020/7/29, 103, 43, 55, 5, 3, 4
2020/7/30, 95, 33, 44, 5, 3, 4
2020/7/31, 81, 50, 51, 8, 6, 6
2020/8/1, 109, 43, 59, 7, 7, 6
2020/8/2, 102, 49, 60, 10, 6, 7
2020/8/3, 104, 23, 24, 9, 5, 4
2020/8/4, 68, 23, 30, 8, 4, 6
2020/8/5, 74, 30, 28, 10, 4, 12
2020/8/6, 83, 19, 24, 10, 5, 11
2020/8/7, 52, 45, 64, 9, 7, 11
2020/8/8, 106, 52, 83, 10, 8, 9
2020/8/9, 113, 61, 72, 12, 8, 10
2020/8/10, 130, 48, 51, 8, 3, 6
2020/8/11, 102, 40, 43, 7, 5, 6
2020/8/12, 98, 25, 43, 7, 7, 6
2020/8/13, 60, 48, 71, 12, 7, 8
2020/8/14, 78, 30, 34, 8, 5, 8
2020/8/15, 72, 41, 44, 8, 5, 10
2020/8/16, 92, 54, 64, 11, 5, 11
2020/8/17, 116, 37, 54, 8, 6, 5
2020/8/18, 67, 38, 35, 11, 6, 8
2020/8/19, 76, 38, 27, 9, 5, 9
2020/8/20, 87, 39, 39, 6, 5, 6
2020/8/21, 81, 50, 57, 11, 7, 8
2020/8/22, 89, 71, 36, 11, 8, 10
2020/8/23, 142, 44, 35, 12, 10, 8
2020/8/24, 111, 59, 66, 16, 10, 11
2020/8/25, 110, 64, 100, 17, 12, 12
2020/8/26, 111, 51, 102, 10, 10, 7
2020/8/27, 88, 56, 95, 13, 8, 6
2020/8/28, 99, 53, 76, 13, 6, 6
2020/8/29, 93, 63, 99, 17, 7, 8
2020/8/30, 114, 60, 51, 13, 9, 7
2020/8/31, 107, 53, 71, 13, 10, 7
2020/9/1, 108, 50, 79, 13, 10, 7
2020/9/2, 78, 56, 71, 16, 12, 7
2020/9/3, 84, 54, 88, 17, 9, 7
2020/9/4, 81, 50, , 16, 9, 5
2020/9/5, 75, 57, , 19, 13, 6
2020/9/6, 91, 67, , 19, 10, 8
2020/9/7, 108, 49, , 15, 9, 7
2020/9/8, 82, 65, , 21, 8, 9
2020/9/9, 105, 55, 67, 14, 6, 8
2020/9/10, 113, 42, 42, 12, 7, 7
2020/9/11, 76, 48, 49, 13, 5, 7
2020/9/12, 71, 55, 64, 11, 5, 9
2020/9/13, 111, 67, 78, 17, 5, 7
2020/9/14, 125, 61, 74, 11, 6, 6
2020/9/15, 106, 57, 56, 19, 14, 7
2020/9/16, 84, 58, 51, 15, 9, 7
2020/9/17, 79, 57, 43, 22, 10, 7
2020/9/18, 88, 63, 76, 26, 9, 7
2020/9/19, 93, 90, 68, 22, 8, 6
2020/9/20, 93, 48, 57, 11, 8, 5
2020/9/21, 95, 61, 61, 14, 10, 7
2020/9/22, 127, 77, 58, 18, 6, 8
2020/9/23, 151, 72, 70, 12, 4, 10
2020/9/24, 149, 66, 77, 12, 5, 10
2020/9/25, 141, 75, 79, 15, 4, 10
2020/9/26, 151, 67, 33, 19, 5, 8
2020/9/27, 135, 63, 38, 22, 6, 9
2020/9/28, 119, 72, 37, 27, 7, 8
2020/9/29, 111, 52, 33, 12, 6, 9
2020/9/30, 100, 84, 67, 17, 6, 12
2020/4/1, 138, 68, 58, 20, 4, 9
2020/4/2, 154, 82, 93, 22, 13, 9
2020/4/3, 159, 100, 41, 26, 23, 7
2020/4/4, 153, 88, 58, 19, 11, 11
2020/4/5, 122, 79, 91, 18, 26, 16
2020/4/6, 133, 74, 67, 23, 13, 6
2020/4/7, 127, 93, 40, 20, 10, 8
2020/4/8, 155, 69, 66, 13, 11, 9
2020/4/9, 134, 35, 23, 10, 2, 5
2020/4/10, 100, 51, 86, 12, 8, 18
2020/4/11, 109, 71, 82, 19, 12, 6
2020/4/12, 112, 67, 90, 21, 15, 7
2020/4/13, 116, 64, 58, 20, 8, 5
2020/4/14, 102, 66, 59, 19, 19, 6
2020/4/15, 111, 78, 79, 19, 15, 6
2020/4/16, 118, 73, 76, 16, 11, 5
2020/4/17, 97, 60, 60, 18, 9, 5
2020/4/18, 115, 54, 72, 11, 9, 7
2020/4/19, 118, 63, 41, 11, 9, 4
2020/4/20, 87, 67, 36, 24, 11, 6
2020/4/21, 92, 65, 40, 11, 7, 4
2020/4/22, 81, 65, 50, 21, 8, 5
2020/4/23, 96, 88, 73, 20, 11, 6
2020/4/24, 104, 81, 46, 16, 16, 4
2020/4/25, 93, 74, 57, 20, 9, 5
2020/4/26, 104, 59, 65, 12, 16, 5
2020/4/27, 107, 62, 76, 18, 8, 5
2020/4/28, 97, 67, 100, 16, 11, 6
2020/4/29, 104, 77, 113, 20, 14, 8
2020/4/30, 121, 63, 113, 16, 20, 7
2020/5/1, 98, 73, 124, 11, 23, 8
2020/5/2, 141, 87, 122, 22, 14, 9
2020/5/3, 137, 79, 77, 11, 5, 6
2020/5/4, 115, 43, 52, 11, 5, 7
2020/5/5, 83, 64, 59, 17, 14, 5
2020/5/6, 111, 53, 110, 10, 12, 5
2020/5/7, 106, 31, 78, 11, 14, 9
2020/5/8, 71, 51, 27, 14, 7, 8
2020/5/9, 108, 58, 56, 13, 9, 6
2020/5/10, 85, 66, 40, 15, 9, 5
2020/5/11, 71, 93, 74, 14, 20, 5
2020/5/12, 87, 92, 69, 25, 9, 7
2020/5/13, 101, 49, 101, 9, 9, 23
2020/5/14, 76, 69, 115, 16, 8, 5
2020/5/15, 118, 60, 64, 11, 11, 4
2020/5/16, 81, 121, 91, 11, 9, 7
2020/5/17, 136, 58, 90, 10, 15, 4
2020/5/18, 78, 53, 68, 14, 9, 6
2020/5/19, 68, 72, 96, 26, 8, 7
2020/5/20, 90, 70, 130, 20, 18, 9
2020/5/21, 97, 74, 103, 15, 12, 10
2020/5/22, 105, 91, 68, 24, 11, 9
2020/5/23, 108, 68, 71, 21, 9, 8
2020/5/24, 95, 56, 105, 16, 23, 5
2020/5/25, 66, 51, 72, 8, 6, 5
2020/5/26, 76, 62, 49, 20, 8, 5
2020/5/27, 75, 64, 115, 23, 17, 4
2020/5/28, 71, 67, 97, 28, 9, 4
2020/5/29, 67, 58, 70, 6, 5, 4
2020/5/30, 79, 76, 94, 12, 8, 6
2020/5/31, 116, 81, 130, 10, 9, 5
2020/6/1, 116, 91, 55, 15, 14, 4
2020/6/2, 86, 94, 84, 16, 18, 4
2020/6/3, 95, 88, 194, 19, 20, 5
2020/6/4, 109, 99, 124, 11, 20, 7
2020/6/5, 104, 79, 117, 9, 12, 6
2020/6/6, 102, 62, 78, 12, 10, 4
2020/6/7, 83, 71, 94, 10, 8, 3
2020/6/8, 91, 77, 32, 14, 9, 7
2020/6/9, 125, 70, 101, 14, 10, 7
2020/6/10, 126, 61, 53, 14, 15, 6
2020/6/11, 104, 45, 82, 5, 5, 5
2020/6/12, 88, 67, 96, 9, 7, 7
2020/6/13, 126, 59, 74, 12, 8, 5
2020/6/14, 93, 69, 56, 28, 9, 8
2020/6/15, 105, 48, 60, 8, 5, 6
2020/6/16, 101, 35, 40, 7, 5, 5
2020/6/17, 76, 51, 114, 7, 6, 7
2020/6/18, 99, 49, 68, 8, 4, 5
2020/6/19, 84, 51, 65, 6, 3, 5
2020/6/20, 83, 51, 72, 11, 3, 6
2020/6/21, 88, 60, 43, 12, 4, 5
2020/6/22, 104, 64, 53, 11, 5, 6
2020/6/23, 119, 80, 109, 16, 7, 8
2020/6/24, 139, 54, 96, 9, 7, 6
2020/6/25, 87, 74, 96, 16, 6, 10
2020/6/26, 130, 80, 95, 18, 9, 11
2020/6/27, 128, 48, 57, 8, 4, 5
2020/6/28, 77, 67, , 7, 4, 7
2020/6/29, 131, 58, , 9, 5, 7
2020/6/30, 114, 70, , 15, 5, 8
2020/1/1, 125, 101, 12, 31, 13, 15
2020/1/2, 171, 125, 11, 38, 20, 16
2020/1/3, 198, 160, 4, 48, 19, 24
2020/1/4, 249, 131, 12, 31, 9, 19
2020/1/5, 241, 99, 9, 28, 16, 21
2020/1/6, 196, 66, 21, 22, 6, 14
2020/1/7, 152, 71, 15, 19, 5, 11
2020/1/8, 164, 77, 21, 25, 5, 25
2020/1/9, 161, 99, 11, 32, 6, 14
2020/1/10, 186, 116, 25, 31, 7, 20
2020/1/11, 215, 97, 19, 28, 11, 15
2020/1/12, 179, 130, 50, 30, 20, 31
2020/1/13, 220, 154, 31, 37, 14, 26
2020/1/14, 250, 91, 21, 31, 9, 10
2020/1/15, 175, 82, 46, 20, 15, 10
2020/1/16, 176, 107, 52, 24, 13, 24
2020/1/17, 197, 130, 166, 29, 24, 23
2020/1/18, 223, 75, 39, 18, 9, 10
2020/1/19, 137, 75, 26, 19, 7, 10
2020/1/20, 133, 98, 14, 28, 9, 13
2020/1/21, 176, 163, 18, 27, 12, 21
2020/1/22, 236, 202, 45, 27, 17, 29
2020/1/23, 319, 150, 35, 18, 8, 21
2020/1/24, 262, 82, 29, 13, 8, 12
2020/1/25, 169, 80, 38, 10, 10, 10
2020/1/26, 170, 66, 33, 8, 9, 9
2020/1/27, 150, 71, 36, 11, 11, 11
2020/1/28, 166, 82, 38, 11, 8, 12
2020/1/29, 170, 95, 42, 14, 15, 15
2020/1/30, 190, 87, 46, 14, 16, 13
2020/1/31, 178, 87, 39, 11, 10, 16
2020/2/1, 177, 78, 41, 11, 14, 13
2020/2/2, 168, 65, 106, 8, 16, 8
2020/2/3, 146, 88, 65, 11, 9, 12
2020/2/4, 173, 55, 21, 7, 7, 8
2020/2/5, 119, 58, 19, 8, 7, 9
2020/2/6, 142, 58, 56, 8, 6, 8
2020/2/7, 150, 69, 29, 12, 15, 12
2020/2/8, 163, 68, 43, 12, 11, 12
2020/2/9, 148, 52, 43, 10, 31, 9
2020/2/10, 122, 60, 39, 13, 7, 9
2020/2/11, 151, 64, 40, 11, 9, 11
2020/2/12, 154, 57, 20, 9, 13, 10
2020/2/13, 136, 75, 18, 9, 14, 13
2020/2/14, 155, 37, 25, 6, 3, 6
2020/2/15, 96, 31, 33, 6, 6, 4
2020/2/16, 64, 42, 32, 12, 6, 6
2020/2/17, 86, 41, 40, 9, 9, 6
2020/2/18, 90, 51, 37, 13, 8, 9
2020/2/19, 115, 87, 63, 15, 8, 13
2020/2/20, 177, 79, 65, 8, 14, 6
2020/2/21, 118, 66, 36, 8, 5, 4
2020/2/22, 89, 77, 46, 18, 8, 8
2020/2/23, 134, 88, 54, 21, 8, 12
2020/2/24, 165, 95, 37, 17, 12, 13
2020/2/25, 176, 76, 27, 12, 4, 9
2020/2/26, 162, 59, 22, 13, 4, 10
2020/2/27, 143, 60, 19, 12, 4, 10
2020/2/28, 152, 70, 14, 16, 4, 10
2020/2/29, 158, 68, 29, 16, 5, 15
2020/3/1, 158, 61, 35, 12, 6, 8
2020/3/2, 139, 60, 22, 14, 6, 7
2020/3/3, 136, 50, 26, 16, 5, 5
2020/3/4, 95, 59, 44, 14, 6, 6
2020/3/5, 118, 75, 70, 16, 14, 8
2020/3/6, 157, 91, 57, 20, 6, 10
2020/3/7, 172, 106, 29, 29, 7, 10
2020/3/8, 180, 105, 27, 18, 6, 14
2020/3/9, 197, 74, 36, 16, 6, 9
2020/3/10, 122, 88, 36, 23, 13, 8
2020/3/11, 124, 84, 69, 21, 11, 10
2020/3/12, 125, 53, 63, 10, 5, 6
2020/3/13, 87, 57, 34, 15, 7, 6
2020/3/14, 95, 49, 41, 15, 16, 6
2020/3/15, 80, 76, 28, 22, 13, 8
2020/3/16, 136, 66, 41, 17, 17, 7
2020/3/17, 107, 69, 46, 18, 26, 7
2020/3/18, 95, 116, 65, 9, 6, 4
2020/3/19, 77, 96, 71, 21, 11, 8
2020/3/20, 98, 119, 45, 28, 18, 12
2020/3/21, 160, 83, 51, 17, 10, 10
2020/3/22, 128, 76, 77, 22, 9, 8
2020/3/23, 124, 67, 62, 15, 8, 7
2020/3/24, 116, 68, 37, 18, 9, 8
2020/3/25, 133, 59, 30, 8, 4, 7
2020/3/26, 114, 35, 65, 9, 3, 5
2020/3/27, 62, 58, 42, 18, 6, 6
2020/3/28, 92, 49, 43, 13, 3, 6
2020/3/29, 104, , , , , 
2019/10/1, 94, 69, 83, 17, 5, 7
2019/10/2, 96, 67, 92, 20, 7, 8
2019/10/3, 101, 43, 35, 11, 5, 8
2019/10/4, 94, 24, 27, 10, 4, 6
2019/10/5, 45, 29, 24, 15, 5, 6
2019/10/6, 70, 55, 31, 18, 4, 23
2019/10/7, 117, 68, 39, 26, 6, 11
2019/10/8, 118, 54, 30, 22, 4, 8
2019/10/9, 104, 44, 22, 18, 6, 10
2019/10/10, 88, 84, 37, 20, 13, 10
2019/10/11, 132, 66, 42, 22, 6, 10
2019/10/12, 117, 78, 50, 25, 8, 11
2019/10/13, 147, 43, 20, 14, 5, 6
2019/10/14, 81, 47, 20, 23, 8, 6
2019/10/15, 77, 58, 21, 20, 5, 7
2019/10/16, 127, 85, 20, 30, 7, 12
2019/10/17, 156, 87, 36, 32, 9, 15
2019/10/18, 160, 83, 105, 36, 13, 15
2019/10/19, 156, 85, 100, 34, 15, 14
2019/10/20, 155, 108, 58, 25, 13, 13
2019/10/21, 165, 96, 41, 37, 17, 16
2019/10/22, 153, 97, 37, 32, 12, 16
2019/10/23, 173, 91, 55, 33, 20, 13
2019/10/24, 149, 47, 20, 20, 6, 6
2019/10/25, 75, 66, 22, 29, 10, 7
2019/10/26, 104, 72, 38, 25, 13, 7
2019/10/27, 112, 123, 31, 17, 10, 6
2019/10/28, 122, 112, 30, 28, 11, 10
2019/10/29, 116, 110, 36, 30, 16, 11
2019/10/30, 139, 71, 34, 30, 25, 10
2019/10/31, 110, 87, 57, 33, 17, 12
2019/11/1, 131, 115, 54, 35, 18, 15
2019/11/2, 173, 86, 32, 20, 9, 11
2019/11/3, 151, 87, 25, 24, 13, 14
2019/11/4, 161, 118, 33, 31, 21, 19
2019/11/5, 182, 96, 53, 32, 13, 14
2019/11/6, 167, 128, 76, 25, 16, 41
2019/11/7, 190, 125, 39, 29, 11, 15
2019/11/8, 183, 136, 46, 51, 8, 15
2019/11/9, 211, 82, 48, 24, 8, 27
2019/11/10, 89, 86, 27, 27, 11, 9
2019/11/11, 105, 99, 63, 34, 13, 10
2019/11/12, 149, 50, 30, 12, 8, 4
2019/11/13, 63, 64, 24, 25, 11, 8
2019/11/14, 93, 101, 20, 32, 13, 13
2019/11/15, 159, 110, 28, 31, 12, 15
2019/11/16, 173, 91, 22, 19, 6, 12
2019/11/17, 151, 97, 24, 15, 5, 4
2019/11/18, 94, 97, 12, 26, 10, 9
2019/11/19, 131, 95, 15, 29, 9, 10
2019/11/20, 147, 89, 27, 27, 8, 8
2019/11/21, 150, 123, 42, 34, 9, 14
2019/11/22, 181, 153, 15, 42, 12, 20
2019/11/23, 230, 117, 18, 27, 9, 13
2019/11/24, 177, 44, 23, 16, 5, 4
2019/11/25, 65, 62, 9, 27, 10, 6
2019/11/26, 101, 77, 11, 25, 10, 9
2019/11/27, 124, 61, 52, 22, 8, 8
2019/11/28, 106, 79, 9, 29, 8, 7
2019/11/29, 152, 82, 13, 23, 9, 9
2019/11/30, 160, 108, 17, 39, 10, 14
2019/12/1, 186, 64, 26, 25, 9, 9
2019/12/2, 111, 56, 23, 22, 13, 8
2019/12/3, 90, 60, 25, 23, 15, 9
2019/12/4, 107, 93, 47, 28, 12, 13
2019/12/5, 155, 79, 50, 19, 11, 10
2019/12/6, 159, 123, 13, 27, 8, 14
2019/12/7, 214, 110, 25, 24, 7, 14
2019/12/8, 196, 121, 14, 31, 9, 19
2019/12/9, 206, 114, 22, 29, 13, 19
2019/12/10, 181, 120, 22, 33, 12, 20
2019/12/11, 185, 81, 44, 28, 11, 15
2019/12/12, 155, 101, 50, 30, 13, 14
2019/12/13, 171, 57, 17, 20, 7, 8
2019/12/14, 109, 56, 11, 18, 6, 9
2019/12/15, 113, 65, 9, 17, 5, 16
2019/12/16, 138, 65, 11, 19, 6, 16
2019/12/17, 153, 52, 14, 20, 6, 8
2019/12/18, 103, 100, 43, 30, 11, 16
2019/12/19, 171, 87, 42, 26, 8, 12
2019/12/20, 166, 129, 7, 32, 9, 18
2019/12/21, 216, 165, 4, 34, 9, 28
2019/12/22, 249, 154, 5, 38, 9, 23
2019/12/23, 244, 150, 27, 36, 14, 33
2019/12/24, 236, 166, 2, 31, 9, 25
2019/12/25, 257, 83, 36, 22, 13, 15
2019/12/26, 132, 54, 55, 22, 19, 18
2019/12/27, 88, 69, 22, 28, 14, 10
2019/12/28, 133, 84, 24, 27, 11, 11
2019/12/29, 163, , , , , 
2019/7/1, 86, 65, 104, 22, 12, 8
2019/7/2, 92, 74, 103, 12, 8, 8
2019/7/3, 97, 61, 63, 17, 6, 8
2019/7/4, 103, 55, 90, 15, 8, 6
2019/7/5, 85, 54, 63, 10, 6, 6
2019/7/6, 73, 46, 57, 11, 6, 6
2019/7/7, 64, 44, 46, 10, 6, 6
2019/7/8, 89, 59, 63, 15, 9, 8
2019/7/9, 109, 56, 49, 14, 6, 11
2019/7/10, 132, 59, 62, 14, 5, 11
2019/7/11, 128, 63, 42, 24, 6, 9
2019/7/12, 123, 65, 87, 15, 6, 9
2019/7/13, 131, 64, 84, 16, 6, 9
2019/7/14, 121, 55, 68, 15, 7, 9
2019/7/15, 113, 56, 82, 12, 5, 8
2019/7/16, 112, 64, 53, 13, 5, 9
2019/7/17, 150, 61, 68, 13, 6, 8
2019/7/18, 127, 72, 80, 19, 6, 10
2019/7/19, 142, 70, 69, 15, 6, 11
2019/7/20, 143, 75, 72, 16, 8, 13
2019/7/21, 150, 49, 47, 13, 6, 7
2019/7/22, 100, 43, 74, 12, 6, 8
2019/7/23, 78, 60, 72, 23, 7, 9
2019/7/24, 89, 65, 64, 17, 7, 10
2019/7/25, 95, 61, 71, 12, 5, 7
2019/7/26, 117, 27, 39, 7, 5, 5
2019/7/27, 69, 35, 39, 7, 5, 4
2019/7/28, 78, 37, 135, 10, 6, 6
2019/7/29, 73, 33, 76, 9, 6, 7
2019/7/30, 76, 49, 82, 12, 6, 7
2019/7/31, 89, 30, 33, 8, 5, 4
2019/8/1, 44, 30, 41, 8, 6, 5
2019/8/2, 65, 44, 67, 9, 6, 6
2019/8/3, 76, 54, 40, 9, 5, 9
2019/8/4, 95, 50, 38, 12, 6, 6
2019/8/5, 87, 53, 39, 14, 21, 8
2019/8/6, 84, 42, 45, 12, 6, 12
2019/8/7, 72, 52, 78, 15, 12, 10
2019/8/8, 91, 54, 68, 16, 25, 10
2019/8/9, 92, 37, 38, 8, 6, 8
2019/8/10, 73, 39, 38, 11, 8, 8
2019/8/11, 69, 46, 123, 11, 8, 8
2019/8/12, 90, 49, 68, 12, 8, 21
2019/8/13, 70, 53, 66, 14, 9, 7
2019/8/14, 86, 56, 115, 17, 14, 8
2019/8/15, 87, 54, 90, 13, 10, 7
2019/8/16, 97, 48, 72, 14, 7, 7
2019/8/17, 65, 53, 89, 20, 7, 7
2019/8/18, 76, 53, 90, 18, 6, 6
2019/8/19, 83, 51, 87, 10, 4, 6
2019/8/20, 93, 66, 54, 16, 3, 12
2019/8/21, 123, 69, 77, 19, 6, 11
2019/8/22, 126, 59, 70, 24, 5, 7
2019/8/23, 99, 68, 71, 25, 10, 10
2019/8/24, 104, 65, 35, 20, 8, 15
2019/8/25, 119, 73, 89, 21, 6, 13
2019/8/26, 129, 75, 37, 16, 7, 28
2019/8/27, 137, 48, 69, 17, 10, 7
2019/8/28, 83, 43, 54, 17, 8, 5
2019/8/29, 57, 48, 90, 21, 9, 6
2019/8/30, 63, 46, 68, 21, 10, 6
2019/8/31, 67, 54, 81, 23, 10, 6
2019/9/1, 73, 54, 60, 15, 6, 6
2019/9/2, 84, 61, 104, 18, 12, 14
2019/9/3, 109, 70, 87, 23, 9, 19
2019/9/4, 126, 63, 97, 18, 10, 7
2019/9/5, 118, 53, 83, 19, 10, 6
2019/9/6, 87, 68, 80, 25, 9, 9
2019/9/7, 113, 76, 110, 23, 11, 9
2019/9/8, 134, 69, 93, 18, 7, 6
2019/9/9, 122, 76, 71, 18, 9, 12
2019/9/10, 147, 27, 51, 11, 5, 6
2019/9/11, 55, 25, 16, 15, 12, 11
2019/9/12, 63, 50, 19, 19, 10, 14
2019/9/13, 108, 58, 13, 18, 24, 8
2019/9/14, 96, 20, 31, 10, 6, 4
2019/9/15, 55, 39, 42, 15, 9, 7
2019/9/16, 82, 65, 29, 17, 8, 7
2019/9/17, 113, 65, 76, 15, 8, 8
2019/9/18, 111, 64, 30, 22, 11, 7
2019/9/19, 92, 60, 55, 17, 10, 10
2019/9/20, 117, 76, 69, 26, 12, 16
2019/9/21, 129, 80, 113, 29, 9, 11
2019/9/22, 151, 89, 94, 38, 12, 15
2019/9/23, 158, 89, 112, 33, 15, 14
2019/9/24, 154, 79, 89, 37, 9, 13
2019/9/25, 125, 72, 75, 38, 9, 12
2019/9/26, 113, 79, 74, 36, 9, 10
2019/9/27, 125, 78, 93, 24, 7, 7
2019/9/28, 109, 73, 92, 22, 7, 7
2019/9/29, 108, 70, 90, 16, 6, 6
2019/9/30, 101, 72, 112, 15, 6, 7
2019/4/1, 114, 94, 52, 30, 16, 9
2019/4/2, 179, 90, 67, 23, 14, 9
2019/4/3, 153, 108, 79, 33, 14, 9
2019/4/4, 174, 109, 92, 27, 18, 11
2019/4/5, 163, 155, 41, 25, 16, 10
2019/4/6, 150, 129, 63, 28, 18, 12
2019/4/7, 150, 128, 30, 28, 15, 11
2019/4/8, 150, 46, 30, 11, 6, 6
2019/4/9, 98, 67, 41, 18, 7, 8
2019/4/10, 149, 85, 67, 24, 12, 10
2019/4/11, 167, 98, 46, 31, 10, 11
2019/4/12, 170, 79, 42, 18, 9, 10
2019/4/13, 160, 58, 44, 19, 8, 6
2019/4/14, 86, 72, 51, 30, 12, 7
2019/4/15, 100, 70, 55, 17, 10, 7
2019/4/16, 98, 84, 63, 26, 10, 8
2019/4/17, 108, 147, 59, 22, 13, 11
2019/4/18, 128, 72, 32, 17, 9, 7
2019/4/19, 83, 89, 70, 27, 18, 11
2019/4/20, 137, 86, 37, 24, 9, 17
2019/4/21, 167, 100, 27, 20, 8, 13
2019/4/22, 181, 69, 64, 13, 8, 11
2019/4/23, 153, 65, 63, 17, 9, 10
2019/4/24, 139, 47, 29, 10, 4, 7
2019/4/25, 101, 64, 38, 12, 5, 7
2019/4/26, 128, 64, 30, 20, 9, 7
2019/4/27, 138, 67, 51, 17, 8, 9
2019/4/28, 148, 86, 65, 21, 12, 11
2019/4/29, 173, 125, 62, 21, 11, 10
2019/4/30, 162, 66, 47, 25, 11, 8
2019/5/1, 77, 70, 79, 22, 15, 7
2019/5/2, 100, 76, 86, 22, 11, 7
2019/5/3, 100, 76, 61, 21, 10, 7
2019/5/4, 121, 125, 65, 28, 16, 10
2019/5/5, 147, 65, 51, 14, 8, 6
2019/5/6, 70, 105, 55, 28, 12, 7
2019/5/7, 110, 83, 54, 20, 11, 6
2019/5/8, 116, 74, 73, 25, 14, 9
2019/5/9, 127, 74, 72, 23, 14, 8
2019/5/10, 118, 62, 81, 22, 14, 8
2019/5/11, 101, 84, 67, 25, 14, 8
2019/5/12, 106, 103, 40, 16, 12, 8
2019/5/13, 101, 116, 74, 26, 14, 8
2019/5/14, 127, 97, 71, 18, 13, 11
2019/5/15, 136, 87, 92, 19, 15, 11
2019/5/16, 158, 81, 90, 18, 12, 9
2019/5/17, 137, 58, 38, 11, 9, 7
2019/5/18, 108, 82, 61, 17, 8, 6
2019/5/19, 93, 68, 52, 16, 11, 4
2019/5/20, 65, 59, 74, 19, 14, 7
2019/5/21, 83, 61, 64, 23, 21, 7
2019/5/22, 90, 66, 94, 22, 15, 7
2019/5/23, 101, 69, 78, 18, 9, 7
2019/5/24, 96, 72, 29, 15, 10, 7
2019/5/25, 120, 67, , 11, 8, 7
2019/5/26, 110, 73, , 10, 8, 5
2019/5/27, 75, 46, 43, 14, 8, 4
2019/5/28, 63, 48, 31, 17, 7, 5
2019/5/29, 71, 55, 86, 13, 8, 6
2019/5/30, 83, 70, 89, 16, 8, 6
2019/5/31, 126, 65, 88, 25, 10, 8
2019/6/1, 102, 74, 83, 21, 10, 7
2019/6/2, 91, 82, 124, 19, 13, 8
2019/6/3, 100, 72, 100, 19, 8, 7
2019/6/4, 94, 92, 76, 14, 10, 11
2019/6/5, 133, 56, 68, 13, 8, 11
2019/6/6, 99, 76, 105, 18, 13, 11
2019/6/7, 136, 59, 93, 18, 12, 8
2019/6/8, 86, 69, 91, 20, 15, 7
2019/6/9, 90, 50, 61, 18, 14, 7
2019/6/10, 65, 63, 122, 25, 14, 9
2019/6/11, 86, 56, 61, 20, 8, 7
2019/6/12, 75, 59, 83, 25, 10, 9
2019/6/13, 85, 64, 98, 18, 10, 8
2019/6/14, 97, 61, 67, 23, 12, 9
2019/6/15, 90, 68, 63, 18, 12, 9
2019/6/16, 93, 72, 60, 15, 10, 10
2019/6/17, 105, 73, 110, 25, 7, 8
2019/6/18, 117, 57, 70, 17, 5, 8
2019/6/19, 93, 45, 44, 11, 5, 7
2019/6/20, 79, 63, 87, 15, 8, 9
2019/6/21, 112, 79, 108, 16, 7, 11
2019/6/22, 149, 65, 95, 15, 7, 8
2019/6/23, 112, 71, 106, 23, 11, 8
2019/6/24, 109, 69, 116, 18, 9, 8
2019/6/25, 119, 63, 105, 12, 6, 6
2019/6/26, 100, 62, 78, 14, 7, 7
2019/6/27, 109, 53, 43, 10, 6, 7
2019/6/28, 108, 53, 53, 11, 9, 6
2019/6/29, 85, 42, 80, 13, 9, 6
2019/6/30, 61, 59, 86, 29, 11, 8
2019/1/1, 194, 131, 35, 41, 18, 26
2019/1/2, 210, 149, 29, 45, 17, 23
2019/1/3, 218, 181, 13, 57, 23, 33
2019/1/4, 296, 99, 25, 40, 16, 21
2019/1/5, 180, 108, 13, 43, 20, 24
2019/1/6, 178, 130, 11, 49, 24, 28
2019/1/7, 204, 119, 18, 41, 19, 22
2019/1/8, 197, 104, 17, 28, 9, 9
2019/1/9, 138, 97, 18, 29, 9, 15
2019/1/10, 186, 143, 17, 35, 12, 25
2019/1/11, 247, 173, 8, 41, 9, 32
2019/1/12, 257, 143, 14, 42, 9, 26
2019/1/13, 234, 162, 9, 37, 10, 26
2019/1/14, 256, 129, 24, 24, 6, 15
2019/1/15, 150, 89, 19, 31, 12, 11
2019/1/16, 122, 86, 21, 34, 19, 16
2019/1/17, 142, 117, 12, 48, 19, 23
2019/1/18, 176, 127, 16, 50, 24, 29
2019/1/19, 196, 124, 18, 39, 17, 22
2019/1/20, 185, 75, 26, 29, 20, 13
2019/1/21, 114, 63, 27, 28, 17, 25
2019/1/22, 94, 94, 29, 43, 24, 19
2019/1/23, 162, 127, 24, 48, 16, 24
2019/1/24, 195, 98, 26, 28, 11, 14
2019/1/25, 153, 83, 27, 30, 13, 14
2019/1/26, 144, 95, 6, 33, 15, 15
2019/1/27, 165, 122, 16, 36, 20, 23
2019/1/28, 184, , , , , 
2019/1/30, 245, 76, 25, 16, 7, 11
2019/1/31, 117, 56, 38, 12, 6, 10
2019/2/1, 108, 95, 26, 18, 6, 17
2019/2/2, 185, 118, 30, 21, 9, 21
2019/2/3, 191, 82, 42, 13, 10, 11
2019/2/4, 133, 212, 52, 19, 21, 21
2019/2/5, 306, 175, 26, 17, 11, 24
2019/2/6, 257, 77, 32, 8, 6, 10
2019/2/7, 127, 57, 29, 7, 7, 9
2019/2/8, 108, 68, 33, 11, 10, 12
2019/2/9, 140, 69, 29, 8, 6, 9
2019/2/10, 141, 79, 38, 15, 7, 13
2019/2/11, 168, 110, 26, 21, 10, 19
2019/2/12, 209, 88, 17, 20, 8, 18
2019/2/13, 179, 81, 17, 19, 5, 19
2019/2/14, 176, 100, 26, 21, 5, 21
2019/2/15, 188, 118, 35, 28, 14, 21
2019/2/16, 198, 121, 38, 34, 15, 21
2019/2/17, 200, 73, 30, 31, 12, 12
2019/2/18, 156, 109, 17, 30, 16, 23
2019/2/19, 193, 157, 23, 32, 12, 29
2019/2/20, 260, 167, 52, 30, 8, 23
2019/2/21, 272, 161, 76, 39, 9, 37
2019/2/22, 274, 179, 74, 48, 12, 29
2019/2/23, 269, 158, 43, 51, 20, 27
2019/2/24, 255, 167, 73, 44, 17, 28
2019/2/25, 276, 165, 29, 40, 19, 28
2019/2/26, 274, 124, 53, 36, 9, 19
2019/2/27, 212, 93, 53, 29, 11, 16
2019/2/28, 173, 80, 43, 28, 10, 15
2019/3/1, 161, 93, 42, 31, 12, 15
2019/3/2, 177, 86, 36, 23, 7, 14
2019/3/3, 178, 98, 32, 27, 12, 17
2019/3/4, 181, 107, 52, 21, 13, 16
2019/3/5, 196, 94, 44, 22, 10, 15
2019/3/6, 144, 60, 43, 15, 8, 8
2019/3/7, 85, 62, 48, 20, 7, 10
2019/3/8, 119, 85, 41, 30, 11, 12
2019/3/9, 158, 110, 39, 33, 11, 15
2019/3/10, 173, 66, 39, 16, 9, 9
2019/3/11, 93, 73, 35, 14, 6, 7
2019/3/12, 80, 74, 25, 33, 10, 10
2019/3/13, 121, 77, 37, 25, 15, 12
2019/3/14, 128, 63, 39, 26, 14, 10
2019/3/15, 102, 62, 45, 26, 13, 10
2019/3/16, 100, 84, 50, 29, 13, 13
2019/3/17, 150, 76, 49, 25, 12, 11
2019/3/18, 139, 89, 57, 24, 11, 11
2019/3/19, 126, 77, 54, 19, 12, 13
2019/3/20, 155, 81, 32, 17, 8, 9
2019/3/21, 94, 69, 27, 34, 9, 8
2019/3/22, 92, 79, 36, 22, 9, 22
2019/3/23, 96, 78, 45, 27, 12, 6
2019/3/24, 125, 76, 46, 27, 12, 6
2019/3/25, 119, 91, 43, 33, 14, 8
2019/3/26, 129, 95, 43, 33, 12, 9
2019/3/27, 128, 103, 25, 22, 11, 7
2019/3/28, 118, 84, , 21, 11, 6
2019/3/29, 119, 79, 37, 15, 9, 4
2019/3/30, 92, 74, 43, 20, 14, 5
2019/3/31, 101, 82, 42, 28, 11, 6
2018/10/1, 65, 59, 56, 28, 10, 10
2018/10/2, 98, 76, 75, 35, 12, 12
2018/10/3, 147, 106, 81, 41, 12, 16
2018/10/4, 159, 100, 95, 47, 13, 14
2018/10/5, 167, 113, 94, 43, 21, 13
2018/10/6, 177, 80, 43, 34, 14, 11
2018/10/7, 123, 112, 75, 36, 19, 26
2018/10/8, 167, 88, 36, 30, 8, 9
2018/10/9, 129, 72, 69, 32, 8, 7
2018/10/10, 109, 71, 43, 29, 8, 8
2018/10/11, 120, 81, 61, 34, 9, 7
2018/10/12, 140, 77, 68, 33, 14, 7
2018/10/13, 151, 81, 49, 39, 17, 8
2018/10/14, 146, 89, 41, 33, 18, 9
2018/10/15, 162, 96, 41, 30, 14, 11
2018/10/16, 179, 72, 45, 25, 11, 12
2018/10/17, 151, 62, 43, 27, 6, 7
2018/10/18, 121, 69, 42, 32, 10, 9
2018/10/19, 137, 82, 34, 42, 15, 12
2018/10/20, 151, 94, 16, 36, 13, 10
2018/10/21, 168, 83, 43, 22, 11, 9
2018/10/22, 162, 75, 33, 26, 11, 8
2018/10/23, 108, 94, 47, 38, 19, 12
2018/10/24, 149, 108, 33, 41, 14, 14
2018/10/25, 168, 53, 27, 16, 4, 5
2018/10/26, 62, 54, 31, 21, 9, 7
2018/10/27, 80, 56, 33, 15, 6, 5
2018/10/28, 70, 59, 33, 22, 9, 8
2018/10/29, 93, 80, 34, 32, 13, 11
2018/10/30, 141, 109, 46, 40, 13, 11
2018/10/31, 168, 130, 47, 40, 15, 17
2018/11/1, 176, 114, 62, 38, 8, 12
2018/11/2, 170, 86, 47, 37, 12, 20
2018/11/3, 159, 109, 45, 33, 16, 11
2018/11/4, 185, 57, 17, 19, 3, 9
2018/11/5, 127, 47, 20, 21, 4, 17
2018/11/6, 106, 63, 13, 25, 7, 10
2018/11/7, 135, 62, 21, 26, 4, 9
2018/11/8, 144, 76, 26, 34, 11, 12
2018/11/9, 159, 105, 18, 35, 8, 19
2018/11/10, 186, 87, 9, 34, 7, 21
2018/11/11, 166, 127, 11, 31, 9, 25
2018/11/12, 214, 129, 14, 33, 7, 26
2018/11/13, 207, 129, 9, 40, 7, 23
2018/11/14, 212, 143, 24, 31, 9, 20
2018/11/15, 239, 64, 18, 22, 4, 9
2018/11/16, 146, 65, 11, 25, 4, 11
2018/11/17, 154, 75, 15, 27, 9, 13
2018/11/18, 153, 72, 24, 34, 13, 11
2018/11/19, 149, 91, 8, 40, 11, 15
2018/11/20, 169, 120, 20, 39, 11, 17
2018/11/21, 191, 89, 25, 34, 9, 13
2018/11/22, 151, 109, 16, 39, 10, 14
2018/11/23, 182, 149, 15, 47, 13, 23
2018/11/24, 227, 180, 17, 59, 14, 26
2018/11/25, 269, 173, 35, 37, 12, 20
2018/11/26, 240, 271, 23, 35, 13, 16
2018/11/27, 196, 340, 25, 40, 11, 17
2018/11/28, 210, 179, 19, 36, 12, 14
2018/11/29, 176, 187, 21, 35, 9, 16
2018/11/30, 192, 199, 15, 34, 9, 22
2018/12/1, 231, 140, 28, 35, 5, 32
2018/12/2, 231, 166, 20, 29, 6, 22
2018/12/3, 210, 142, 43, 24, 9, 10
2018/12/4, 149, 97, 45, 21, 5, 8
2018/12/5, 137, 85, 14, 21, 3, 10
2018/12/6, 162, 59, 20, 19, 3, 5
2018/12/7, 100, 70, 54, 23, 8, 7
2018/12/8, 134, 79, 13, 26, 9, 8
2018/12/9, 152, 113, 7, 31, 11, 15
2018/12/10, 182, 129, 10, 37, 13, 17
2018/12/11, 197, 119, 20, 31, 17, 17
2018/12/12, 158, 102, 16, 33, 17, 14
2018/12/13, 167, 105, 21, 37, 14, 14
2018/12/14, 176, 151, 14, 45, 22, 17
2018/12/15, 231, 90, 28, 30, 24, 11
2018/12/16, 142, 79, 27, 33, 14, 14
2018/12/17, 118, 90, 42, 42, 18, 17
2018/12/18, 141, 128, 14, 47, 24, 29
2018/12/19, 186, 146, 14, 49, 24, 29
2018/12/20, 217, 153, 12, 49, 21, 27
2018/12/21, 230, 138, 15, 48, 23, 27
2018/12/22, 205, 110, 19, 33, 13, 16
2018/12/23, 156, 107, 16, 34, 21, 13
2018/12/24, 157, 116, 13, 40, 24, 19
2018/12/25, 174, 80, 22, 24, 10, 11
2018/12/26, 131, 77, 15, 19, 7, 10
2018/12/27, 151, 64, 21, 21, 11, 10
2018/12/28, 126, 81, 19, 31, 11, 14
2018/12/29, 152, 79, 22, 32, 12, 17
2018/12/30, 157, , , , , 
2018/7/1, 154, 64, 67, 17, 7, 7
2018/7/2, 147, 62, 99, 18, 11, 7
2018/7/3, 137, 58, 59, 23, 7, 8
2018/7/4, 131, 65, 103, 16, 6, 8
2018/7/5, 150, 84, 121, 20, 8, 13
2018/7/6, 163, 53, 83, 14, 8, 7
2018/7/7, 116, 46, 53, 14, 8, 7
2018/7/8, 102, 53, 38, 16, 7, 13
2018/7/9, 126, 38, 32, 16, 5, 9
2018/7/10, 112, 66, 38, 17, 4, 12
2018/7/11, 156, 75, 42, 22, 5, 11
2018/7/12, 158, 40, 36, 12, 4, 9
2018/7/13, 96, 44, 53, 15, 8, 16
2018/7/14, 120, 48, 86, 14, 6, 12
2018/7/15, 120, 41, 86, 15, 8, 10
2018/7/16, 89, 41, 91, 16, 9, 9
2018/7/17, 91, 49, 92, 11, 6, 7
2018/7/18, 104, 43, 78, 14, 10, 8
2018/7/19, 86, 50, 93, 15, 12, 9
2018/7/20, 97, 49, 48, 13, 6, 7
2018/7/21, 102, 49, 67, 11, 5, 6
2018/7/22, 113, 60, 78, 14, 8, 8
2018/7/23, 124, 55, 115, 14, 8, 9
2018/7/24, 107, 61, 119, 20, 17, 10
2018/7/25, 117, 41, 90, 12, 6, 9
2018/7/26, 96, 41, 72, 10, 5, 8
2018/7/27, 100, 53, 73, 10, 4, 12
2018/7/28, 145, 61, 90, 14, 6, 13
2018/7/29, 161, 48, 58, 17, 7, 13
2018/7/30, 127, 44, 62, 14, 6, 10
2018/7/31, 124, 54, 70, 14, 7, 13
2018/8/1, 133, 60, 90, 13, 6, 11
2018/8/2, 147, 75, 106, 15, 8, 13
2018/8/3, 159, 72, 119, 16, 11, 12
2018/8/4, 148, 43, 45, 9, 10, 8
2018/8/5, 108, 50, 63, 11, 10, 11
2018/8/6, 133, 54, 76, 14, 7, 9
2018/8/7, 120, 60, 105, 13, 8, 9
2018/8/8, 124, 57, 77, 9, 5, 13
2018/8/9, 135, 57, 81, 13, 8, 11
2018/8/10, 128, 59, 94, 11, 7, 8
2018/8/11, 130, 55, 76, 7, 6, 7
2018/8/12, 121, 50, 60, 11, 7, 7
2018/8/13, 95, 49, 53, 11, 6, 10
2018/8/14, 101, 48, 60, 12, 8, 9
2018/8/15, 93, 31, 40, 15, 7, 7
2018/8/16, 69, 39, 93, 10, 8, 7
2018/8/17, 74, 36, 58, 7, 7, 8
2018/8/18, 82, 16, 25, 10, 3, 8
2018/8/19, 55, 46, 84, 15, 9, 12
2018/8/20, 98, 61, 110, 20, 12, 11
2018/8/21, 120, 55, 70, 22, 14, 12
2018/8/22, 86, 49, 86, 21, 13, 11
2018/8/23, 89, 66, 98, 21, 11, 11
2018/8/24, 123, 65, 94, 24, 11, 10
2018/8/25, 133, 68, 94, 19, 15, 9
2018/8/26, 132, 71, 84, 22, 12, 10
2018/8/27, 138, 67, 120, 19, 16, 13
2018/8/28, 126, 72, 113, 22, 13, 12
2018/8/29, 134, 53, 66, 13, 11, 10
2018/8/30, 86, 60, 69, 10, 7, 12
2018/8/31, 112, 49, 56, 12, 6, 9
2018/9/1, 100, 64, 74, 18, 10, 10
2018/9/2, 134, 61, 66, 17, 11, 7
2018/9/3, 88, 50, 79, 19, 14, 7
2018/9/4, 69, 61, 68, 24, 12, 8
2018/9/5, 95, 49, 62, 15, 6, 7
2018/9/6, 88, 44, 46, 21, 4, 4
2018/9/7, 63, 57, 76, 25, 7, 6
2018/9/8, 90, 59, 103, 21, 6, 7
2018/9/9, 103, 73, 79, 23, 7, 6
2018/9/10, 122, 49, 87, 14, 4, 5
2018/9/11, 84, 65, 98, 24, 8, 7
2018/9/12, 115, 63, 44, 21, 7, 6
2018/9/13, 118, 45, 38, 16, 8, 6
2018/9/14, 97, 69, 27, 22, 9, 14
2018/9/15, 158, 56, 17, 22, 10, 11
2018/9/16, 122, 59, 52, 18, 10, 13
2018/9/17, 132, 65, 32, 25, 6, 16
2018/9/18, 152, 51, 18, 27, 6, 26
2018/9/19, 133, 59, 25, 19, 6, 18
2018/9/20, 134, 63, 61, 21, 7, 13
2018/9/21, 119, 53, 55, 24, 8, 9
2018/9/22, 84, 61, 42, 30, 7, 11
2018/9/23, 96, 57, 46, 24, 8, 8
2018/9/24, 90, 39, 30, 18, 7, 8
2018/9/25, 84, 62, 51, 30, 4, 13
2018/9/26, 132, 78, 64, 25, 8, 10
2018/9/27, 160, 61, 46, 19, 10, 7
2018/9/28, 111, 71, 54, 28, 11, 8
2018/9/29, 106, 47, 42, 17, 13, 9
2018/9/30, 84, 39, 44, 19, 6, 8
2018/4/1, 189, 132, 108, 43, 28, 17
2018/4/2, 161, 199, 36, 22, 14, 11
2018/4/3, 131, 63, 32, 18, 7, 11
2018/4/4, 95, 79, 13, 25, 8, 14
2018/4/5, 153, 91, 43, 15, 17, 10
2018/4/6, 111, 67, 45, 16, 15, 9
2018/4/7, 75, 87, 51, 24, 18, 11
2018/4/8, 101, 104, 64, 30, 18, 12
2018/4/9, 144, 137, 28, 32, 24, 18
2018/4/10, 155, 148, 58, 22, 19, 14
2018/4/11, 144, 70, 37, 15, 11, 9
2018/4/12, 112, 43, 38, 13, 12, 12
2018/4/13, 91, 114, 31, 22, 14, 16
2018/4/14, 145, 170, 58, 23, 14, 13
2018/4/15, 138, 155, 64, 29, 20, 12
2018/4/16, 145, 129, 64, 22, 17, 11
2018/4/17, 138, 113, 88, 21, 15, 13
2018/4/18, 152, 84, 95, 18, 13, 11
2018/4/19, 135, 87, 99, 18, 20, 10
2018/4/20, 126, 64, 34, 19, 14, 12
2018/4/21, 116, 37, 35, 14, 8, 12
2018/4/22, 84, 50, 41, 17, 8, 12
2018/4/23, 107, 76, 39, 23, 13, 15
2018/4/24, 155, 93, 24, 24, 19, 15
2018/4/25, 168, 78, 73, 27, 15, 14
2018/4/26, 149, 103, 95, 31, 20, 17
2018/4/27, 168, 99, 88, 28, 18, 14
2018/4/28, 154, 71, 84, 22, 20, 12
2018/4/29, 120, 110, 87, 26, 21, 15
2018/4/30, 164, 97, 80, 19, 17, 17
2018/5/1, 163, 62, 56, 16, 13, 11
2018/5/2, 111, 72, 67, 21, 15, 11
2018/5/3, 122, 94, 79, 27, 12, 11
2018/5/4, 114, 79, 56, 16, 11, 11
2018/5/5, 144, 92, 50, 20, 12, 14
2018/5/6, 150, 73, 69, 21, 13, 13
2018/5/7, 119, 105, 103, 33, 19, 16
2018/5/8, 145, 81, 116, 23, 16, 14
2018/5/9, 136, 72, 90, 10, 8, 10
2018/5/10, 95, 78, 75, 13, 8, 13
2018/5/11, 153, 80, 93, 17, 11, 14
2018/5/12, 150, 87, 107, 26, 15, 14
2018/5/13, 136, 69, 86, 17, 13, 13
2018/5/14, 102, 54, 72, 13, 11, 12
2018/5/15, 106, 47, 68, 13, 11, 11
2018/5/16, 93, 76, 49, 21, 11, 17
2018/5/17, 156, 63, 50, 18, 12, 13
2018/5/18, 129, 65, 53, 18, 10, 13
2018/5/19, 132, 46, 44, 14, 6, 13
2018/5/20, 108, 62, 37, 17, 6, 11
2018/5/21, 140, 110, 56, 16, 9, 11
2018/5/22, 141, 109, 80, 20, 14, 10
2018/5/23, 124, 105, 38, 32, 18, 13
2018/5/24, 146, 69, 32, 20, 11, 11
2018/5/25, 141, 166, , 29, 15, 13
2018/5/26, 176, 88, , 21, 20, 7
2018/5/27, 120, 87, , 25, 21, 8
2018/5/28, 111, 94, , 29, 16, 10
2018/5/29, 99, 84, , 41, 26, 12
2018/5/30, 113, 91, , 39, 23, 12
2018/5/31, 121, 95, 126, 33, 17, 11
2018/6/1, 139, 92, 116, 24, 22, 10
2018/6/2, 138, 82, 123, 16, 18, 9
2018/6/3, 119, 82, 127, 19, 16, 12
2018/6/4, 131, 90, 105, 28, 19, 9
2018/6/5, 109, 79, 122, 25, 15, 9
2018/6/6, 109, 85, 147, 17, 15, 10
2018/6/7, 117, 97, 110, 14, 14, 13
2018/6/8, 139, 36, 52, 9, 7, 8
2018/6/9, 81, 56, 99, 17, 8, 9
2018/6/10, 134, 63, 118, 22, 10, 10
2018/6/11, 131, 86, 112, 22, 12, 10
2018/6/12, 88, 70, 99, 21, 11, 10
2018/6/13, 109, 74, 126, 16, 33, 10
2018/6/14, 145, 70, 128, 25, 12, 10
2018/6/15, 131, 64, 101, 15, 10, 8
2018/6/16, 111, 73, 119, 21, 11, 9
2018/6/17, 139, 61, 71, 15, 11, 8
2018/6/18, 134, 49, 118, 11, 10, 8
2018/6/19, 115, 64, 139, 17, 12, 9
2018/6/20, 136, 79, 105, 18, 11, 10
2018/6/21, 136, 56, 116, 15, 11, 8
2018/6/22, 105, 59, 130, 10, 11, 7
2018/6/23, 119, 53, 108, 10, 10, 6
2018/6/24, 105, 52, 41, 14, 11, 10
2018/6/25, 121, 46, 50, 13, 11, 14
2018/6/26, 126, 52, 106, 11, 13, 11
2018/6/27, 125, 52, 89, 16, 11, 8
2018/6/28, 105, 60, 103, 23, 17, 8
2018/6/29, 105, 62, 89, 14, 8, 7
2018/6/30, 134, 75, 137, 20, 9, 11
2018/1/1, 195, 106, 23, 35, 16, 17
2018/1/2, 170, 62, 18, 24, 8, 11
2018/1/3, 125, 71, 21, 16, 7, 10
2018/1/4, 121, 76, 35, 19, 4, 12
2018/1/5, 166, 84, 27, 26, 6, 15
2018/1/6, 172, 102, 26, 26, 7, 16
2018/1/7, 198, 59, 34, 15, 7, 8
2018/1/8, 104, 41, 34, 12, 8, 7
2018/1/9, 66, 44, 33, 14, 9, 7
2018/1/10, 80, 54, 51, 22, 9, 10
2018/1/11, 94, 83, 21, 36, 14, 18
2018/1/12, 157, 111, 13, 45, 16, 18
2018/1/13, 185, 127, 19, 44, 18, 22
2018/1/14, 205, 153, 20, 50, 33, 28
2018/1/15, 247, 177, 15, 57, 27, 36
2018/1/16, 284, 261, 23, 58, 27, 46
2018/1/17, 358, 279, 16, 66, 31, 51
2018/1/18, 337, 184, 35, 44, 19, 32
2018/1/19, 255, 150, 16, 52, 26, 35
2018/1/20, 225, 169, 35, 43, 19, 28
2018/1/21, 249, 103, 33, 28, 10, 14
2018/1/22, 177, 66, 66, 21, 6, 10
2018/1/23, 152, 73, 53, 23, 13, 12
2018/1/24, 153, 67, 36, 20, 14, 12
2018/1/25, 136, 70, 28, 26, 18, 13
2018/1/26, 154, 75, 26, 21, 6, 9
2018/1/27, 160, 112, 12, 27, 6, 17
2018/1/28, 207, 71, 25, 23, 14, 13
2018/1/29, 123, 66, 20, 26, 15, 12
2018/1/30, 126, 69, 28, 22, 15, 12
2018/1/31, 116, 73, 23, 27, 16, 13
2018/2/1, 123, 74, 27, 20, 10, 9
2018/2/2, 101, 73, 25, 29, 15, 12
2018/2/3, 131, 74, 24, 28, 20, 13
2018/2/4, 137, 70, 25, 27, 15, 13
2018/2/5, 135, 75, 25, 34, 17, 14
2018/2/6, 144, 96, 29, 32, 17, 17
2018/2/7, 162, 92, 31, 31, 13, 13
2018/2/8, 141, 132, 33, 33, 19, 17
2018/2/9, 174, 123, 33, 14, 10, 9
2018/2/10, 119, 73, 36, 12, 8, 7
2018/2/11, 85, 48, 37, 8, 8, 7
2018/2/12, 65, 66, 44, 14, 15, 13
2018/2/13, 124, 112, 39, 18, 16, 14
2018/2/14, 150, 82, 38, 11, 15, 10
2018/2/15, 138, 179, 66, 16, 37, 19
2018/2/16, 266, 132, 38, 15, 16, 31
2018/2/17, 215, 119, 42, 16, 11, 19
2018/2/18, 209, 87, 47, 14, 12, 14
2018/2/19, 175, 111, 37, 15, 12, 18
2018/2/20, 202, 116, 30, 18, 10, 23
2018/2/21, 215, 58, 41, 22, 9, 10
2018/2/22, 109, 73, 44, 27, 11, 14
2018/2/23, 147, 93, 31, 15, 9, 11
2018/2/24, 124, 81, 40, 22, 12, 11
2018/2/25, 147, 115, 63, 25, 11, 14
2018/2/26, 184, 144, 31, 32, 12, 19
2018/2/27, 231, 136, 42, 28, 8, 21
2018/2/28, 227, 93, 35, 17, 6, 12
2018/3/1, 147, 77, 42, 20, 7, 11
2018/3/2, 152, 86, 33, 17, 5, 12
2018/3/3, 168, 86, 25, 17, 5, 14
2018/3/4, 171, 69, 36, 22, 7, 11
2018/3/5, 122, 81, 35, 26, 9, 11
2018/3/6, 136, 85, 35, 21, 8, 14
2018/3/7, 169, 86, 40, 22, 6, 12
2018/3/8, 164, 99, 46, 30, 7, 13
2018/3/9, 174, 137, 63, 29, 10, 18
2018/3/10, 220, 153, 69, 35, 13, 22
2018/3/11, 240, 146, 82, 38, 17, 20
2018/3/12, 240, 100, 76, 29, 14, 14
2018/3/13, 174, 84, 68, 24, 15, 14
2018/3/14, 162, 172, 31, 20, 8, 12
2018/3/15, 147, 50, 41, 12, 5, 7
2018/3/16, 73, 59, 27, 27, 8, 9
2018/3/17, 122, 76, 25, 29, 6, 15
2018/3/18, 166, 99, 41, 27, 8, 16
2018/3/19, 181, 54, 41, 20, 7, 10
2018/3/20, 97, 67, 37, 27, 17, 11
2018/3/21, 123, 106, 42, 39, 21, 16
2018/3/22, 171, 120, 62, 34, 17, 19
2018/3/23, 183, 76, 76, 22, 10, 13
2018/3/24, 150, 95, 89, 31, 17, 14
2018/3/25, 168, 102, 72, 25, 18, 13
2018/3/26, 168, 96, 67, 25, 19, 14
2018/3/27, 155, 101, 73, 25, 21, 13
2018/3/28, 152, 166, 48, 19, 11, 11
2018/3/29, 140, 73, 89, 24, 12, 10
2018/3/30, 104, 120, 106, 36, 21, 15
2018/3/31, 178, 136, 108, 37, 25, 19
2017/10/1, 167, 81, 43, 24, 14, 11
2017/10/2, 147, 32, 23, 18, 5, 6
2017/10/3, 73, 36, 24, 19, 12, 7
2017/10/4, 91, 50, 26, 17, 9, 6
2017/10/5, 109, 57, 34, 18, 8, 6
2017/10/6, 123, 70, 15, 24, 7, 8
2017/10/7, 145, 62, 7, 27, 6, 16
2017/10/8, 146, 37, 11, 22, 6, 15
2017/10/9, 85, 29, 11, 21, 6, 10
2017/10/10, 70, 52, 20, 22, 8, 10
2017/10/11, 109, 51, 27, 24, 8, 9
2017/10/12, 109, 74, 28, 32, 9, 10
2017/10/13, 135, 86, 35, 33, 11, 10
2017/10/14, 159, 117, 13, 44, 14, 24
2017/10/15, 183, 103, 20, 38, 16, 18
2017/10/16, 179, 99, 24, 32, 18, 18
2017/10/17, 178, 57, 42, 21, 8, 7
2017/10/18, 122, 82, 39, 31, 15, 11
2017/10/19, 161, 94, 55, 31, 11, 13
2017/10/20, 169, 98, 27, 38, 16, 16
2017/10/21, 172, 104, 38, 25, 10, 18
2017/10/22, 179, 66, 35, 26, 8, 10
2017/10/23, 119, 83, 42, 36, 11, 14
2017/10/24, 157, 101, 30, 37, 11, 13
2017/10/25, 172, 102, 39, 33, 13, 13
2017/10/26, 172, 97, 44, 37, 13, 15
2017/10/27, 169, 108, 64, 31, 15, 17
2017/10/28, 173, 55, 53, 21, 6, 6
2017/10/29, 87, 81, 20, 40, 15, 10
2017/10/30, 145, 108, 20, 41, 20, 13
2017/10/31, 163, 89, 13, 34, 16, 21
2017/11/1, 168, 85, 29, 29, 18, 16
2017/11/2, 154, 90, 33, 28, 12, 11
2017/11/3, 155, 78, 32, 28, 10, 7
2017/11/4, 129, 79, 29, 35, 12, 11
2017/11/5, 146, 127, 37, 48, 18, 17
2017/11/6, 184, 133, 47, 42, 17, 18
2017/11/7, 198, 142, 62, 49, 20, 16
2017/11/8, 205, 152, 68, 44, 17, 18
2017/11/9, 201, 85, 26, 23, 11, 9
2017/11/10, 131, 62, 24, 32, 14, 7
2017/11/11, 96, 87, 11, 33, 23, 12
2017/11/12, 150, 86, 24, 36, 21, 14
2017/11/13, 156, 85, 20, 33, 23, 11
2017/11/14, 129, 85, 33, 34, 19, 18
2017/11/15, 142, 104, 21, 39, 23, 27
2017/11/16, 163, 121, 24, 35, 40, 16
2017/11/17, 170, 55, 25, 17, 18, 6
2017/11/18, 98, 94, 6, 34, 22, 11
2017/11/19, 162, 86, 13, 30, 10, 13
2017/11/20, 167, 98, 19, 32, 15, 15
2017/11/21, 169, 71, 17, 19, 11, 8
2017/11/22, 131, 60, , 25, 12, 13
2017/11/23, 120, 77, , 25, 12, 10
2017/11/24, 113, 89, , 23, 16, 11
2017/11/25, 140, 92, 25, 27, 16, 12
2017/11/26, 155, 109, 19, 33, 17, 14
2017/11/27, 162, 142, 26, 37, 22, 20
2017/11/28, 201, 73, 17, 21, 10, 11
2017/11/29, 115, 73, 19, 27, 13, 12
2017/11/30, 137, 121, 18, 48, 26, 19
2017/12/1, 181, 152, 26, 49, 19, 27
2017/12/2, 219, 214, 20, 49, 24, 35
2017/12/3, 256, 127, 23, 39, 16, 21
2017/12/4, 185, 78, 23, 30, 15, 15
2017/12/5, 134, 74, 3, 32, 18, 18
2017/12/6, 134, 91, 52, 32, 22, 21
2017/12/7, 160, 69, 79, 26, 15, 13
2017/12/8, 121, 68, 23, 24, 18, 12
2017/12/9, 112, 65, 30, 21, 15, 10
2017/12/10, 103, 74, 20, 27, 19, 14
2017/12/11, 124, 59, 18, 23, 11, 11
2017/12/12, 101, 78, 14, 34, 18, 14
2017/12/13, 154, 88, 10, 29, 12, 16
2017/12/14, 176, 133, 4, 27, 20, 39
2017/12/15, 224, 100, 27, 27, 19, 27
2017/12/16, 181, 55, 26, 21, 18, 19
2017/12/17, 104, 59, 26, 23, 15, 13
2017/12/18, 106, 67, 24, 26, 21, 14
2017/12/19, 131, 54, 35, 21, 13, 10
2017/12/20, 93, 82, 22, 34, 22, 20
2017/12/21, 151, 109, 10, 44, 27, 27
2017/12/22, 181, 145, 14, 52, 30, 34
2017/12/23, 226, 77, 34, 19, 11, 9
2017/12/24, 112, 83, 27, 30, 18, 11
2017/12/25, 142, 104, 27, 38, 23, 18
2017/12/26, 167, 128, 17, 51, 25, 24
2017/12/27, 196, 141, 16, 44, 20, 22
2017/12/28, 215, 156, 10, 51, 13, 25
2017/12/29, 252, 129, 25, 39, 13, 20
2017/12/30, 190, 92, 21, 39, 15, 18
2017/12/31, 143, 137, 18, 45, 24, 25
2017/7/1, 133, 83, 122, 19, 21, 9
2017/7/2, 151, 89, 128, 25, 17, 10
2017/7/3, 144, 77, 104, 18, 12, 8
2017/7/4, 115, 70, 84, 15, 12, 10
2017/7/5, 132, 64, 74, 14, 9, 8
2017/7/6, 122, 71, 97, 13, 11, 10
2017/7/7, 126, 73, 113, 16, 11, 8
2017/7/8, 109, 94, 69, 16, 8, 7
2017/7/9, 134, 77, 115, 13, 9, 8
2017/7/10, 108, 64, 107, 13, 13, 6
2017/7/11, 75, 68, 62, 11, 9, 7
2017/7/12, 93, 70, 83, 11, 8, 7
2017/7/13, 91, 67, 64, 11, 8, 6
2017/7/14, 96, 54, 72, 11, 6, 8
2017/7/15, 92, 56, 74, 14, 8, 10
2017/7/16, 121, 66, 76, 16, 13, 12
2017/7/17, 137, 40, 64, 12, 9, 7
2017/7/18, 83, 52, 91, 14, 10, 7
2017/7/19, 96, 55, 85, 13, 9, 8
2017/7/20, 97, 56, 83, 14, 9, 9
2017/7/21, 103, 57, 62, 14, 5, 11
2017/7/22, 123, 74, 83, 13, 5, 10
2017/7/23, 154, 95, 82, 14, 6, 18
2017/7/24, 170, 77, 112, 15, 7, 14
2017/7/25, 159, 81, 87, 17, 8, 12
2017/7/26, 149, 53, 42, 17, 7, 14
2017/7/27, 121, 45, 59, 15, 5, 11
2017/7/28, 91, 45, 37, 17, 5, 10
2017/7/29, 92, 59, 77, 15, 7, 12
2017/7/30, 139, 80, 114, 18, 15, 15
2017/7/31, 163, 74, 64, 14, 9, 11
2017/8/1, 153, 47, 32, 12, 10, 8
2017/8/2, 113, 67, 95, 14, 9, 9
2017/8/3, 142, 82, 104, 23, 27, 11
2017/8/4, 157, 71, 105, 21, 34, 10
2017/8/5, 132, 72, 118, 23, 20, 11
2017/8/6, 145, 84, 95, 20, 25, 17
2017/8/7, 153, 50, 104, 14, 22, 7
2017/8/8, 96, 65, 105, 17, 13, 8
2017/8/9, 127, 75, 126, 19, 16, 10
2017/8/10, 142, 69, 89, 13, 5, 8
2017/8/11, 128, 53, 56, 11, 11, 6
2017/8/12, 97, 57, 133, 15, 13, 9
2017/8/13, 117, 60, 102, 19, 10, 11
2017/8/14, 126, 74, 89, 23, 12, 9
2017/8/15, 148, 72, 115, 14, 8, 8
2017/8/16, 148, 72, 77, 13, 6, 10
2017/8/17, 147, 62, 68, 13, 6, 11
2017/8/18, 139, 61, 55, 15, 5, 11
2017/8/19, 143, 59, 83, 16, 6, 10
2017/8/20, 131, 63, 86, 18, 9, 8
2017/8/21, 139, 65, 70, 20, 7, 7
2017/8/22, 131, 56, 30, 16, 10, 8
2017/8/23, 111, 72, , 22, 13, 13
2017/8/24, 126, 63, , 25, 13, 13
2017/8/25, 123, 66, 29, 26, 15, 13
2017/8/26, 129, 75, 39, 29, 19, 14
2017/8/27, 142, 65, , 27, 18, 17
2017/8/28, 132, 46, , 20, 16, 10
2017/8/29, 104, 44, , 14, 10, 7
2017/8/30, 107, 65, , 17, 5, 9
2017/8/31, 144, 42, , 12, 9, 5
2017/9/1, 85, 40, , 13, 12, 5
2017/9/2, 85, 79, 36, 29, 21, 13
2017/9/3, 131, 56, 40, 20, 18, 7
2017/9/4, 123, 69, 24, 22, 26, 12
2017/9/5, 158, 51, 8, 18, 20, 12
2017/9/6, 127, , , , , 
2017/9/11, 164, 88, , 26, 19, 11
2017/9/12, 156, 76, , 27, 9, 10
2017/9/13, 140, 65, , 20, 10, 6
2017/9/14, 121, 75, , 28, 13, 9
2017/9/15, 126, 102, , 39, 24, 13
2017/9/16, 165, 93, , 31, 25, 15
2017/9/17, 164, 90, , 30, 30, 12
2017/9/18, 164, 100, , 46, 29, 15
2017/9/19, 140, 91, , 32, 27, 11
2017/9/20, 126, 83, , 26, 16, 8
2017/9/21, 146, 68, , 20, 16, 9
2017/9/22, 121, 103, 26, 43, 17, 12
2017/9/23, 161, 66, 60, 26, 15, 8
2017/9/24, 109, 63, 34, 24, 11, 8
2017/9/25, 132, 70, 22, 25, 9, 12
2017/9/26, 158, 111, 20, 25, 14, 10
2017/9/27, 131, 72, 57, 22, 10, 8
2017/9/28, 142, 113, 53, 34, 18, 13
2017/9/29, 177, 64, 32, 19, 7, 7
2017/9/30, 135, 87, 17, 24, 11, 13
2017/4/1, 173, 91, 58, 32, 36, 17
2017/4/2, 145, 86, 71, 31, 25, 15
2017/4/3, 156, 70, 32, 23, 21, 16
2017/4/4, 155, 85, 24, 21, 19, 18
2017/4/5, 172, 123, 84, 29, 22, 21
2017/4/6, 201, 109, 69, 38, 28, 19
2017/4/7, 185, 90, 32, 28, 21, 19
2017/4/8, 166, 51, 37, 17, 18, 15
2017/4/9, 80, 66, 74, 24, 25, 18
2017/4/10, 131, 86, 56, 24, 18, 19
2017/4/11, 158, 137, 91, 37, 25, 21
2017/4/12, 172, 97, 91, 29, 18, 18
2017/4/13, 149, 90, 88, 29, 21, 17
2017/4/14, 150, 130, 65, 38, 33, 25
2017/4/15, 171, 67, 28, 25, 24, 15
2017/4/16, 135, 95, 48, 18, 35, 7
2017/4/17, 123, 92, 51, 21, 11, 7
2017/4/18, 112, 94, 44, 23, 19, 22
2017/4/19, 123, 94, 46, 25, 32, 7
2017/4/20, 118, 70, 49, 18, 18, 18
2017/4/21, 87, 77, 66, 25, 28, 18
2017/4/22, 121, 91, 70, 30, 29, 8
2017/4/23, 129, 96, 79, 26, 23, 10
2017/4/24, 149, 121, 42, 23, 19, 8
2017/4/25, 127, 68, 57, 23, 24, 21
2017/4/26, 109, 84, 80, 30, 27, 28
2017/4/27, 146, 90, 76, 28, 26, 11
2017/4/28, 137, 80, 77, 25, 28, 10
2017/4/29, 131, 93, 105, 32, 29, 11
2017/4/30, 153, 125, 84, 22, 20, 12
2017/5/1, 144, 112, 101, 25, 27, 15
2017/5/2, 164, 53, 39, 21, 9, 7
2017/5/3, 117, 128, 63, 20, 10, 11
2017/5/4, 158, 320, 50, 24, 13, 8
2017/5/5, 186, 153, 67, 24, 19, 8
2017/5/6, 148, 148, 92, 31, 25, 9
2017/5/7, 166, 84, 57, 22, 15, 6
2017/5/8, 128, 107, 98, 22, 20, 8
2017/5/9, 144, 118, 77, 22, 31, 8
2017/5/10, 131, 113, 69, 22, 28, 8
2017/5/11, 119, 111, 119, 25, 22, 10
2017/5/12, 136, 123, 83, 18, 20, 8
2017/5/13, 155, 93, 65, 21, 17, 9
2017/5/14, 129, 69, 49, 18, 19, 7
2017/5/15, 107, 82, 84, 15, 25, 7
2017/5/16, 110, 91, 110, 23, 24, 9
2017/5/17, 111, 80, 121, 23, 19, 9
2017/5/18, 129, 75, 124, 27, 19, 9
2017/5/19, 125, 62, 88, 21, 13, 8
2017/5/20, 112, 71, 107, 26, 15, 9
2017/5/21, 134, 81, 113, 17, 12, 8
2017/5/22, 148, 38, 69, 12, 8, 6
2017/5/23, 81, 67, 87, 24, 15, 8
2017/5/24, 125, 66, 85, 23, 18, 8
2017/5/25, 109, 89, 142, 29, 20, 12
2017/5/26, 130, 76, 110, 28, 19, 9
2017/5/27, 117, 81, 128, 28, 18, 9
2017/5/28, 106, 93, 119, 21, 19, 7
2017/5/29, 113, 115, 122, 26, 23, 15
2017/5/30, 144, 86, 136, 22, 18, 12
2017/5/31, 153, 105, 138, 32, 29, 26
2017/6/1, 160, 119, 145, 31, 33, 13
2017/6/2, 156, 102, 62, 18, 6, 8
2017/6/3, 98, 70, 78, 28, 12, 8
2017/6/4, 110, 45, 46, 19, 6, 6
2017/6/5, 102, 55, 55, 18, 7, 8
2017/6/6, 116, 110, 104, 28, 20, 11
2017/6/7, 151, 84, 57, 27, 15, 10
2017/6/8, 135, 83, 96, 22, 20, 8
2017/6/9, 139, 65, 87, 19, 20, 7
2017/6/10, 110, 94, 111, 33, 28, 12
2017/6/11, 132, 118, 102, 19, 20, 10
2017/6/12, 159, 82, 99, 17, 17, 9
2017/6/13, 145, 85, 122, 23, 19, 13
2017/6/14, 164, 108, 118, 27, 20, 12
2017/6/15, 163, 92, 124, 26, 16, 9
2017/6/16, 147, 84, 115, 29, 18, 9
2017/6/17, 145, 80, 138, 23, 13, 9
2017/6/18, 138, 91, 126, 26, 17, 10
2017/6/19, 149, 94, 134, 27, 23, 12
2017/6/20, 158, 79, 72, 21, 17, 10
2017/6/21, 134, 57, 73, 12, 26, 18
2017/6/22, 104, 82, 47, 16, 22, 32
2017/6/23, 162, 77, 99, 18, 15, 15
2017/6/24, 155, 67, 114, 19, 21, 11
2017/6/25, 121, 85, 118, 25, 20, 12
2017/6/26, 121, 91, 116, 24, 18, 10
2017/6/27, 135, 73, 115, 19, 14, 9
2017/6/28, 124, 70, 96, 20, 12, 8
2017/6/29, 106, 70, 109, 13, 8, 8
2017/6/30, 119, 79, 111, 18, 11, 8
2017/1/2, 232, 158, , 42, 10, 48
2017/1/3, 227, 140, , 35, 12, 47
2017/1/4, 199, 137, , 45, 21, 50
2017/1/5, 226, 140, , 40, 28, 48
2017/1/6, 221, 141, 4, 40, 25, 44
2017/1/7, 233, 169, , 43, 35, 38
2017/1/8, 260, 150, , 38, 20, 39
2017/1/9, 216, 158, , 39, 32, 35
2017/1/10, 237, 152, 19, 37, 28, 31
2017/1/11, 223, 79, 27, 27, 42, 19
2017/1/12, 139, 88, 23, 29, 36, 20
2017/1/13, 152, 74, 27, 29, 21, 15
2017/1/14, 145, 80, 19, 30, 27, 15
2017/1/15, 156, 132, 10, 35, 25, 20
2017/1/16, 210, 178, 7, 42, 32, 27
2017/1/17, 278, 201, 4, 43, 33, 30
2017/1/18, 307, 140, , 28, 25, 19
2017/1/19, 197, 68, , 19, 19, 9
2017/1/20, 103, 92, , 30, 34, 15
2017/1/21, 159, 106, , 35, 34, 21
2017/1/22, 175, 140, , 39, 38, 33
2017/1/23, 210, 155, , 42, 44, 31
2017/1/24, 232, 261, , 48, 44, 43
2017/1/25, 337, 253, , 35, 29, 36
2017/1/26, 309, 136, , 21, 26, 21
2017/1/27, 220, 125, , 15, 21, 14
2017/1/28, 205, 132, 29, 17, 22, 20
2017/1/29, 213, 52, 35, 9, 10, 11
2017/1/30, 99, 68, 32, 13, 17, 12
2017/1/31, 136, 92, 40, 18, 17, 17
2017/2/1, 174, 105, 17, 27, 24, 25
2017/2/2, 185, 119, 35, 19, 27, 18
2017/2/3, 204, 175, 16, 27, 16, 24
2017/2/4, 267, 305, 14, 41, 33, 45
2017/2/5, 364, 117, 21, 30, 26, 21
2017/2/6, 199, 66, 24, 21, 23, 13
2017/2/7, 128, 92, 16, 27, 20, 19
2017/2/8, 179, 114, 34, 25, 22, 22
2017/2/9, 175, 86, 37, 29, 29, 20
2017/2/10, 152, 92, 13, 35, 42, 21
2017/2/11, 153, 114, 29, 37, 40, 26
2017/2/12, 177, 127, 6, 40, 43, 30
2017/2/13, 195, 141, 54, 47, 42, 27
2017/2/14, 213, 118, 45, 43, 30, 20
2017/2/15, 184, 213, 54, 36, 43, 24
2017/2/16, 229, 56, 34, 17, 13, 12
2017/2/17, 87, 105, 38, 34, 36, 18
2017/2/18, 163, 158, 61, 37, 33, 23
2017/2/19, 200, 91, 36, 13, 9, 12
2017/2/20, 98, 63, 22, 22, 16, 15
2017/2/21, 115, 111, 19, 24, 27, 21
2017/2/22, 189, 80, 42, 23, 23, 17
2017/2/23, 154, 99, 35, 38, 41, 20
2017/2/24, 168, 107, 37, 37, 36, 23
2017/2/25, 165, 107, 34, 43, 41, 25
2017/2/26, 170, 101, 42, 39, 35, 20
2017/2/27, 164, 91, 39, 38, 34, 19
2017/2/28, 155, 65, 41, 18, 27, 12
2017/3/1, 92, 81, 35, 31, 25, 15
2017/3/2, 118, 82, 37, 34, 33, 17
2017/3/3, 147, 121, 35, 43, 34, 22
2017/3/4, 180, 127, 48, 32, 30, 21
2017/3/5, 181, 85, 47, 29, 36, 16
2017/3/6, 140, 68, 51, 20, 23, 14
2017/3/7, 104, 71, 78, 25, 31, 16
2017/3/8, 124, 75, 41, 28, 33, 19
2017/3/9, 127, 105, 51, 39, 28, 19
2017/3/10, 163, 167, 55, 44, 41, 26
2017/3/11, 198, 99, 34, 24, 19, 16
2017/3/12, 118, 61, 36, 20, 19, 15
2017/3/13, 94, 76, 41, 28, 28, 28
2017/3/14, 135, 90, 52, 30, 34, 15
2017/3/15, 145, 77, 63, 20, 18, 17
2017/3/16, 150, 97, 60, 35, 19, 16
2017/3/17, 166, 103, 69, 33, 14, 16
2017/3/18, 175, 92, 38, 33, 16, 15
2017/3/19, 165, 72, 44, 23, 11, 15
2017/3/20, 150, 113, 51, 28, 18, 19
2017/3/21, 180, 102, 44, 24, 18, 16
2017/3/22, 180, 72, 26, 24, 12, 14
2017/3/23, 149, 96, 38, 23, 32, 17
2017/3/24, 157, 68, 44, 22, 19, 14
2017/3/25, 108, 61, 43, 21, 18, 14
2017/3/26, 109, 90, 58, 31, 24, 17
2017/3/27, 146, 87, 46, 20, 18, 15
2017/3/28, 156, 96, 52, 27, 24, 16
2017/3/29, 176, 105, 33, 28, 16, 17
2017/3/30, 185, 112, 37, 26, 15, 20
2017/3/31, 186, 117, 45, 30, 18, 21
2016/10/1, 177, 98, 47, 24, 11, 12
2016/10/2, 179, 105, 66, 26, 13, 10
2016/10/3, 186, 63, 22, 22, 11, 6
2016/10/4, 134, 89, 39, 21, 13, 9
2016/10/5, 155, 84, 28, 30, 14, 12
2016/10/6, 154, 71, 9, 26, 11, 9
2016/10/7, 153, 79, 20, 32, 13, 15
2016/10/8, 158, 80, 10, 38, 22, 10
2016/10/9, 151, 96, 16, 39, 26, 10
2016/10/10, 172, 79, 33, 33, 21, 7
2016/10/11, 148, 153, 32, 44, 24, 16
2016/10/12, 198, 80, 53, 30, 22, 8
2016/10/13, 142, 71, 43, 31, 10, 7
2016/10/14, 143, 52, 25, 21, 8, 6
2016/10/15, 139, 91, 25, 30, 13, 10
2016/10/16, 172, 107, 46, 39, 19, 17
2016/10/17, 179, 113, 56, 35, 16, 19
2016/10/18, 187, 107, 80, 66, 17, 14
2016/10/19, 192, 95, 13, 42, 11, 11
2016/10/20, 184, 44, 15, 23, 9, 17
2016/10/21, 112, 53, 12, 23, 13, 18
2016/10/22, 123, 44, 22, 21, 11, 10
2016/10/23, 111, 54, 17, 28, 17, 13
2016/10/24, 123, 81, 7, 30, 10, 17
2016/10/25, 153, 82, 32, 29, 12, 15
2016/10/26, 164, 68, 8, 31, 11, 15
2016/10/27, 156, 56, 19, 26, 11, 10
2016/10/28, 132, 73, 19, 30, 14, 10
2016/10/29, 121, 79, 28, 26, 12, 9
2016/10/30, 136, 64, 29, 20, 14, 6
2016/10/31, 103, 76, 12, 25, 21, 9
2016/11/1, 144, 100, 19, 25, 15, 11
2016/11/2, 172, 112, 14, 35, 14, 17
2016/11/3, 175, 122, 28, 32, 18, 15
2016/11/4, 166, 114, 29, 38, 27, 19
2016/11/5, 179, 106, 27, 24, 16, 11
2016/11/6, 182, 109, 7, 37, 19, 19
2016/11/7, 192, 116, 26, 37, 25, 19
2016/11/8, 194, 90, 30, 35, 13, 13
2016/11/9, 166, 109, 26, 27, 17, 9
2016/11/10, 163, 137, 20, 39, 22, 13
2016/11/11, 160, 168, 17, 46, 24, 23
2016/11/12, 223, 225, 32, 54, 18, 30
2016/11/13, 290, 264, 28, 48, 23, 31
2016/11/14, 307, 104, 26, 39, 27, 14
2016/11/15, 164, 124, 16, 48, 17, 15
2016/11/16, 179, 167, 9, 44, 30, 22
2016/11/17, 240, 192, 24, 51, 24, 22
2016/11/18, 267, 175, 8, 42, 14, 29
2016/11/19, 254, 200, 6, 46, 17, 35
2016/11/20, 266, 58, 17, 21, 8, 14
2016/11/21, 130, 55, 23, 14, 7, 6
2016/11/22, 108, 91, 21, 23, 23, 11
2016/11/23, 175, 105, 17, 36, 22, 14
2016/11/24, 183, 102, 22, 35, 19, 14
2016/11/25, 181, 123, 69, 31, 32, 12
2016/11/26, 170, 125, 3, 34, 22, 14
2016/11/27, 167, 116, 18, 41, 29, 13
2016/11/28, 176, 124, 40, 40, 20, 16
2016/11/29, 185, 135, 26, 35, 27, 15
2016/11/30, 196, 111, 29, 37, 30, 21
2016/12/1, 173, 162, 31, 47, 35, 24
2016/12/2, 218, 158, 32, 38, 30, 16
2016/12/3, 223, 108, 31, 40, 30, 17
2016/12/4, 171, 224, 28, 49, 29, 34
2016/12/5, 278, 119, 24, 35, 21, 17
2016/12/6, 176, 125, 26, 41, 35, 23
2016/12/7, 184, 149, 32, 46, 39, 22
2016/12/8, 208, 83, 39, 29, 24, 12
2016/12/9, 147, 105, 18, 36, 35, 17
2016/12/10, 174, 119, 5, 38, 32, 18
2016/12/11, 191, 117, 9, 29, 22, 16
2016/12/12, 195, 113, 19, 32, 22, 19
2016/12/13, 213, 70, 27, 27, 19, 10
2016/12/14, 150, 120, 21, 35, 24, 21
2016/12/15, 191, 121, 30, 42, 26, 25
2016/12/16, 199, 136, 12, 44, 29, 21
2016/12/17, 213, 351, 10, 67, 49, 47
2016/12/18, 411, 542, 16, 74, 40, 56
2016/12/19, 533, 357, 20, 69, 47, 70
2016/12/20, 420, 202, 11, 48, 32, 48
2016/12/21, 340, 96, 54, 28, 16, 23
2016/12/22, 157, 106, 44, 35, 21, 25
2016/12/23, 185, 111, 20, 32, 19, 21
2016/12/24, 191, 82, 11, 25, 19, 15
2016/12/25, 164, 79, 9, 27, 19, 21
2016/12/26, 171, 102, 21, 29, 20, 22
2016/12/27, 182, 133, 24, 29, 19, 21
2016/12/28, 213, 172, 10, 36, 25, 32
2016/12/29, 261, 186, 13, 40, 20, 27
2016/12/30, 260, 258, 4, 44, 26, 33
2016/12/31, 322, , , , , 
2016/7/1, 101, 67, 82, 17, 16, 11
2016/7/2, 137, 55, 66, 12, 14, 6
2016/7/3, 108, 72, 42, 19, 19, 12
2016/7/4, 144, 73, 69, 18, 18, 12
2016/7/5, 147, 85, 88, 25, 20, 9
2016/7/6, 148, 62, 32, 12, 7, 7
2016/7/7, 133, 55, 40, 14, 8, 6
2016/7/8, 99, 38, 15, 10, 5, 5
2016/7/9, 104, 62, 32, 18, 32, 8
2016/7/10, 165, 70, 18, 16, 29, 12
2016/7/11, 140, 76, 27, 17, 25, 20
2016/7/12, 149, 62, 49, 13, 15, 12
2016/7/13, 155, 85, 32, 20, 12, 13
2016/7/14, 138, 36, 36, 12, 7, 10
2016/7/15, 79, 69, 60, 13, 14, 11
2016/7/16, 149, 90, 29, 15, 16, 12
2016/7/17, 161, 99, 51, 13, 18, 20
2016/7/18, 169, 68, 26, 8, 22, 13
2016/7/19, 120, 44, 51, 11, 16, 12
2016/7/20, 71, 66, 48, 19, 16, 12
2016/7/21, 118, 79, 48, 30, 27, 11
2016/7/22, 147, 76, 8, 15, 16, 11
2016/7/23, 129, 55, , 9, 16, 7
2016/7/24, 107, 51, , 14, 15, 9
2016/7/25, 96, 56, 69, 16, 13, 11
2016/7/26, 100, 68, 45, 19, 11, 12
2016/7/27, 144, 61, 69, 12, 12, 11
2016/7/28, 117, 61, 73, 15, 9, 9
2016/7/29, 105, 71, 39, 16, 5, 14
2016/7/30, 136, 42, 23, 14, 6, 9
2016/7/31, 83, 30, 28, 12, 9, 8
2016/8/1, 65, 65, 38, 14, 19, 14
2016/8/2, 117, 59, 52, 13, 18, 12
2016/8/3, 121, 49, 43, 11, 16, 9
2016/8/4, 110, 53, 39, 14, 15, 14
2016/8/5, 115, 41, 23, 16, 8, 13
2016/8/6, 88, 55, 23, 18, 15, 13
2016/8/7, 118, 46, 30, 14, 19, 12
2016/8/8, 88, 52, 43, 15, 10, 15
2016/8/9, 124, 70, 37, 15, 15, 14
2016/8/10, 129, 57, 37, 35, 10, 9
2016/8/11, 105, 56, 64, 16, 9, 10
2016/8/12, 111, 53, 22, 11, 11, 8
2016/8/13, 104, 74, 49, 13, 10, 13
2016/8/14, 145, 65, 29, 22, 21, 16
2016/8/15, 104, 57, 30, 21, 15, 18
2016/8/16, 124, 66, 57, 19, 15, 14
2016/8/17, 136, 77, 69, 16, 8, 11
2016/8/18, 141, 66, 37, 20, 11, 17
2016/8/19, 118, 52, 65, 19, 17, 15
2016/8/20, 93, 63, 85, 18, 19, 15
2016/8/21, 115, 67, 96, 21, 19, 15
2016/8/22, 126, 82, 36, 19, 13, 15
2016/8/23, 161, 87, 50, 14, 12, 13
2016/8/24, 147, 57, 30, 10, 6, 9
2016/8/25, 96, 47, 47, 19, 14, 10
2016/8/26, 74, 79, 81, 34, 23, 12
2016/8/27, 127, 64, 44, 26, 19, 11
2016/8/28, 105, 171, 69, 36, 24, 12
2016/8/29, 124, 81, 86, 31, 29, 13
2016/8/30, 140, 81, 95, 21, 25, 13
2016/8/31, 154, 74, 56, 22, 21, 10
2016/9/1, 113, 71, 78, 25, 27, 11
2016/9/2, 114, 114, 85, 37, 35, 24
2016/9/3, 179, 126, 119, 42, 28, 23
2016/9/4, 192, 129, 115, 31, 22, 22
2016/9/5, 197, 115, 46, 31, 18, 17
2016/9/6, 180, 59, 70, 17, 15, 13
2016/9/7, 125, 68, 69, 26, 27, 13
2016/9/8, 129, 105, 81, 33, 28, 15
2016/9/9, 150, 63, 68, 27, 27, 11
2016/9/10, 113, 55, 46, 17, 21, 11
2016/9/11, 101, 62, 94, 18, 21, 14
2016/9/12, 133, 59, 59, 17, 11, 11
2016/9/13, 142, 86, 56, 31, 16, 15
2016/9/14, 153, 86, 29, 29, 16, 16
2016/9/15, 150, 82, 68, 27, 17, 17
2016/9/16, 155, 127, 99, 44, 22, 20
2016/9/17, 192, 66, 28, 16, 19, 14
2016/9/18, 120, 71, 46, 19, 19, 13
2016/9/19, 137, 78, 60, 31, 28, 12
2016/9/20, 138, 110, 83, 45, 17, 14
2016/9/21, 177, 135, 79, 31, 14, 11
2016/9/22, 183, 113, 84, 26, 15, 10
2016/9/23, 168, 132, 51, 37, 16, 13
2016/9/24, 177, 123, 34, 38, 21, 13
2016/9/25, 178, 84, 22, 28, 21, 12
2016/9/26, 166, 105, 41, 24, 19, 15
2016/9/27, 185, 68, 23, 21, 19, 7
2016/9/28, 94, 73, 31, 34, 21, 10
2016/9/29, 126, 96, 60, 52, 15, 11
2016/9/30, 167, 111, 33, 47, 13, 12
2016/4/1, 173, 216, 32, 25, 31, 9
2016/4/2, 162, 63, 51, 13, 20, 6
2016/4/3, 101, 108, 40, 42, 40, 10
2016/4/4, 153, 121, 50, 33, 38, 12
2016/4/5, 175, 129, 20, 26, 24, 14
2016/4/6, 202, 146, 70, 28, 43, 17
2016/4/7, 199, 195, 93, 42, 43, 28
2016/4/8, 189, 166, 72, 45, 50, 15
2016/4/9, 190, 183, 56, 42, 38, 16
2016/4/10, 177, 120, 44, 29, 30, 10
2016/4/11, 177, 158, 67, 33, 36, 13
2016/4/12, 215, 89, 63, 27, 42, 9
2016/4/13, 135, 150, 71, 42, 40, 14
2016/4/14, 159, 132, 93, 35, 34, 17
2016/4/15, 174, 67, 40, 18, 21, 8
2016/4/16, 134, 88, 41, 23, 30, 8
2016/4/17, 120, 92, 59, 21, 28, 8
2016/4/18, 129, 76, 59, 22, 11, 6
2016/4/19, 141, 126, 43, 37, 37, 15
2016/4/20, 182, 145, 83, 34, 45, 21
2016/4/21, 203, 133, 65, 23, 29, 8
2016/4/22, 148, 104, 41, 27, 30, 11
2016/4/23, 159, 96, 77, 18, 23, 9
2016/4/24, 178, 96, 67, 26, 32, 9
2016/4/25, 157, 104, 77, 25, 21, 10
2016/4/26, 167, 91, 69, 28, 26, 10
2016/4/27, 151, 126, 72, 34, 33, 18
2016/4/28, 196, 140, 107, 34, 25, 15
2016/4/29, 234, 107, 100, 21, 25, 11
2016/4/30, 163, 83, 90, 17, 17, 8
2016/5/1, 114, 91, 41, 15, 20, 8
2016/5/2, 120, 79, 66, 19, 25, 6
2016/5/3, 102, 103, 95, 33, 29, 9
2016/5/4, 145, 96, 87, 21, 27, 11
2016/5/5, 155, 161, 74, 21, 26, 12
2016/5/6, 168, 90, 46, 29, 32, 8
2016/5/7, 133, 68, 46, 17, 20, 8
2016/5/8, 142, 67, 33, 14, 10, 7
2016/5/9, 140, 75, 81, 14, 12, 10
2016/5/10, 156, 89, 94, 16, 17, 11
2016/5/11, 142, 103, 43, 14, 20, 9
2016/5/12, 117, 71, 66, 23, 27, 6
2016/5/13, 115, 73, 25, 30, 22, 17
2016/5/14, 164, 62, 58, 11, 20, 7
2016/5/15, 72, 70, 81, 19, 27, 8
2016/5/16, 134, 86, 91, 26, 36, 9
2016/5/17, 145, 69, 88, 16, 24, 7
2016/5/18, 151, 77, 114, 22, 29, 9
2016/5/19, 155, 77, 83, 19, 37, 9
2016/5/20, 143, 97, 93, 25, 37, 10
2016/5/21, 136, 56, 94, 17, 33, 6
2016/5/22, 104, 83, 77, 26, 31, 10
2016/5/23, 156, 59, 69, 20, 25, 8
2016/5/24, 116, 80, 65, 24, 20, 8
2016/5/25, 128, 61, 29, 19, 31, 8
2016/5/26, 109, 53, 28, 20, 19, 8
2016/5/27, 126, 77, 80, 17, 19, 10
2016/5/28, 186, 82, 89, 26, 19, 10
2016/5/29, 133, 79, 101, 22, 21, 10
2016/5/30, 147, 70, 44, 16, 19, 10
2016/5/31, 140, 65, 89, 15, 20, 10
2016/6/1, 125, 89, 58, 31, 36, 16
2016/6/2, 160, 84, 47, 17, 19, 13
2016/6/3, 161, 80, 92, 13, 18, 8
2016/6/4, 128, 50, 36, 15, 17, 10
2016/6/5, 115, 58, 86, 16, 17, 14
2016/6/6, 126, 81, 48, 28, 20, 14
2016/6/7, 147, 81, 79, 18, 25, 15
2016/6/8, 156, 90, 112, 24, 25, 13
2016/6/9, 135, 90, 93, 15, 14, 9
2016/6/10, 137, 74, 65, 20, 19, 8
2016/6/11, 85, 77, 108, 25, 23, 11
2016/6/12, 140, 84, 103, 18, 18, 10
2016/6/13, 150, 59, 58, 10, 13, 7
2016/6/14, 69, 79, 97, 16, 24, 11
2016/6/15, 160, 73, 85, 24, 30, 10
2016/6/16, 113, 71, 82, 26, 19, 7
2016/6/17, 100, 59, 98, 15, 17, 6
2016/6/18, 111, 81, 98, 29, 17, 10
2016/6/19, 140, 57, 80, 13, 15, 6
2016/6/20, 109, 55, 59, 15, 9, 8
2016/6/21, 109, 73, 94, 23, 12, 9
2016/6/22, 140, 40, 43, 14, 8, 6
2016/6/23, 72, 62, 68, 22, 15, 8
2016/6/24, 96, 67, 87, 32, 25, 8
2016/6/25, 108, 96, 111, 50, 30, 12
2016/6/26, 147, 63, 88, 18, 14, 4
2016/6/27, 94, 51, 97, 13, 13, 5
2016/6/28, 87, 64, 92, 21, 17, 6
2016/6/29, 109, 67, 66, 19, 14, 7
2016/6/30, 128, 59, 87, 45, 32, 11
2016/1/4, 258, 114, 9, 35, 42, 30
2016/1/5, 192, 131, 12, 37, 54, 32
2016/1/6, 205, 179, 20, 39, 45, 35
2016/1/7, 252, 315, 8, 42, 43, 42
2016/1/8, 354, 485, 6, 33, 15, 39
2016/1/9, 403, 521, 4, 41, 41, 56
2016/1/10, 419, 137, 21, 27, 31, 25
2016/1/11, 207, 96, 15, 28, 47, 23
2016/1/12, 175, 132, 21, 31, 49, 29
2016/1/13, 195, 83, 24, 24, 48, 23
2016/1/14, 134, 98, 26, 32, 53, 30
2016/1/15, 167, 200, 7, 52, 60, 50
2016/1/16, 261, 177, 15, 32, 45, 31
2016/1/17, 266, 98, 27, 23, 41, 22
2016/1/18, 164, 147, 29, 34, 54, 30
2016/1/19, 229, 164, 16, 38, 51, 29
2016/1/20, 252, 179, 17, 41, 51, 32
2016/1/21, 249, 123, 18, 29, 39, 28
2016/1/22, 204, 79, 31, 12, 21, 16
2016/1/23, 111, 65, 28, 15, 26, 15
2016/1/24, 109, 60, 27, 15, 34, 17
2016/1/25, 93, 63, 30, 23, 39, 21
2016/1/26, 126, 121, 29, 43, 52, 40
2016/1/27, 188, 174, 19, 52, 61, 45
2016/1/28, 241, 155, 8, 41, 49, 36
2016/1/29, 206, 88, 7, 24, 40, 25
2016/1/30, 168, 106, 5, 24, 52, 28
2016/1/31, 186, 247, 20, 30, 54, 38
2016/2/1, 296, 134, 24, 33, 52, 50
2016/2/2, 225, 154, 27, 40, 48, 52
2016/2/3, 219, 170, 44, 44, 50, 56
2016/2/4, 269, 146, 29, 31, 49, 40
2016/2/5, 240, 65, 35, 12, 38, 19
2016/2/6, 95, 57, 35, 9, 34, 17
2016/2/7, 115, 100, 36, 16, 46, 22
2016/2/8, 181, 127, 60, 24, 54, 36
2016/2/9, 203, 173, 44, 29, 58, 39
2016/2/10, 268, 165, 29, 39, 61, 44
2016/2/11, 273, 188, 15, 37, 56, 54
2016/2/12, 330, 77, 17, 18, 30, 29
2016/2/13, 195, 45, 29, 16, 29, 18
2016/2/14, 104, 50, 33, 13, 27, 16
2016/2/15, 87, 45, 35, 10, 25, 15
2016/2/16, 81, 61, 31, 21, 38, 19
2016/2/17, 133, 84, 38, 29, 46, 28
2016/2/18, 159, 122, 38, 24, 41, 23
2016/2/19, 154, 89, 35, 16, 31, 15
2016/2/20, 114, 127, 25, 23, 32, 19
2016/2/21, 187, 169, 30, 25, 44, 24
2016/2/22, 225, 151, 37, 21, 33, 15
2016/2/23, 209, 105, 32, 27, 36, 11
2016/2/24, 168, 170, 33, 41, 51, 23
2016/2/25, 214, 142, 37, 37, 46, 18
2016/2/26, 192, 157, 42, 32, 47, 19
2016/2/27, 191, 104, 40, 28, 42, 13
2016/2/28, 169, 86, 40, 25, 39, 9
2016/2/29, 139, 145, 38, 40, 52, 15
2016/3/1, 202, 148, 52, 37, 54, 15
2016/3/2, 203, 136, 50, 31, 52, 13
2016/3/3, 181, 253, 35, 44, 54, 22
2016/3/4, 271, 264, 38, 28, 51, 19
2016/3/5, 251, 239, 28, 34, 47, 16
2016/3/6, 209, 298, 38, 37, 53, 21
2016/3/7, 223, 119, 29, 19, 27, 9
2016/3/8, 124, 68, 35, 16, 27, 7
2016/3/9, 98, 93, 34, 23, 40, 10
2016/3/10, 146, 75, 40, 23, 35, 9
2016/3/11, 117, 104, 43, 20, 25, 9
2016/3/12, 169, 148, 42, 30, 30, 15
2016/3/13, 177, 177, 68, 39, 41, 20
2016/3/14, 194, 131, 60, 28, 35, 12
2016/3/15, 187, 196, 63, 37, 43, 17
2016/3/16, 254, 178, 65, 35, 36, 14
2016/3/17, 234, 199, 76, 41, 44, 21
2016/3/18, 248, 347, 82, 43, 44, 26
2016/3/19, 307, 134, 47, 26, 33, 12
2016/3/20, 166, 117, 78, 36, 43, 16
2016/3/21, 170, 183, 74, 38, 36, 15
2016/3/22, 192, 112, 46, 13, 19, 7
2016/3/23, 126, 86, 51, 16, 21, 7
2016/3/24, 142, 100, 49, 22, 24, 8
2016/3/25, 166, 129, 51, 25, 32, 13
2016/3/26, 195, 148, 42, 29, 40, 13
2016/3/27, 164, 106, 51, 32, 37, 9
2016/3/28, 157, 150, 38, 26, 28, 8
2016/3/29, 143, 158, 64, 34, 49, 13
2016/3/30, 175, 137, 69, 27, 31, 9
2016/3/31, 169, 118, 67, 27, 41, 11
2015/10/1, 99, 111, 19, 19, 38, 4
2015/10/2, 130, 115, , 35, 32, 13
2015/10/3, 152, 134, , 36, 44, 15
2015/10/4, 181, 85, , 23, 51, 7
2015/10/5, 157, 106, , 25, 60, 8
2015/10/6, 183, 78, , 18, 43, 6
2015/10/7, 167, 68, 22, 21, 21, 7
2015/10/8, 121, 61, 34, 21, 23, 6
2015/10/9, 96, 67, 35, 23, 20, 6
2015/10/10, 107, 101, 38, 38, 41, 11
2015/10/11, 157, 100, 36, 39, 42, 15
2015/10/12, 153, 129, 49, 48, 31, 15
2015/10/13, 191, 127, 52, 48, 43, 13
2015/10/14, 192, 90, 62, 41, 35, 15
2015/10/15, 164, 159, 86, 65, 42, 27
2015/10/16, 223, 197, 62, 58, 48, 24
2015/10/17, 234, 209, 39, 47, 48, 22
2015/10/18, 264, 104, 29, 37, 33, 20
2015/10/19, 174, 158, 55, 54, 24, 22
2015/10/20, 221, 210, 23, 44, 26, 23
2015/10/21, 275, 111, 4, 32, 21, 19
2015/10/22, 164, 99, 9, 40, 37, 20
2015/10/23, 171, 114, 36, 37, 48, 23
2015/10/24, 184, 60, 17, 28, 22, 11
2015/10/25, 122, 65, 9, 25, 26, 12
2015/10/26, 127, 70, 31, 25, 38, 11
2015/10/27, 102, 99, 22, 36, 37, 14
2015/10/28, 162, 93, 15, 33, 42, 15
2015/10/29, 155, 89, 32, 35, 36, 13
2015/10/30, 140, 160, 8, 53, 47, 21
2015/10/31, 211, 78, 29, 25, 40, 10
2015/11/1, 154, 88, 35, 30, 40, 10
2015/11/2, 160, 102, 63, 30, 29, 11
2015/11/3, 176, 153, 64, 44, 45, 18
2015/11/4, 220, 186, 26, 40, 45, 26
2015/11/5, 275, 36, 16, 16, 19, 10
2015/11/6, 73, 58, 18, 20, 15, 9
2015/11/7, 108, 85, 7, 27, 15, 14
2015/11/8, 167, 109, 11, 27, 23, 15
2015/11/9, 183, 106, 17, 18, 14, 12
2015/11/10, 178, 125, 17, 25, 26, 14
2015/11/11, 202, 146, 19, 35, 43, 30
2015/11/12, 222, 161, 15, 42, 56, 31
2015/11/13, 227, 198, 11, 44, 66, 27
2015/11/14, 250, 134, 3, 36, 64, 32
2015/11/15, 202, 77, 8, 26, 58, 26
2015/11/16, 142, 83, 16, 25, 24, 19
2015/11/17, 165, 56, 15, 22, 28, 11
2015/11/18, 130, 103, 11, 26, 33, 11
2015/11/19, 169, 98, 6, 24, 19, 14
2015/11/20, 163, 48, 2, 26, 14, 22
2015/11/21, 115, 24, 7, 20, 11, 13
2015/11/22, 85, 53, 18, 18, 10, 9
2015/11/23, 131, 43, 27, 17, 16, 9
2015/11/24, 100, 86, 19, 21, 27, 14
2015/11/25, 173, 91, 42, 23, 36, 17
2015/11/26, 180, 125, 27, 33, 43, 17
2015/11/27, 208, 179, 7, 46, 54, 38
2015/11/28, 212, 209, 3, 45, 45, 30
2015/11/29, 228, 386, 7, 63, 55, 48
2015/11/30, 362, 209, 6, 53, 42, 51
2015/12/1, 247, 90, 25, 24, 23, 21
2015/12/2, 118, 65, 22, 13, 21, 10
2015/12/3, 67, 109, 17, 26, 52, 19
2015/12/4, 149, 153, 5, 35, 50, 30
2015/12/5, 181, 327, 16, 44, 56, 41
2015/12/6, 305, 332, 5, 47, 55, 40
2015/12/7, 341, 341, 18, 51, 54, 43
2015/12/8, 353, 334, 8, 51, 35, 41
2015/12/9, 332, 477, 11, 64, 46, 60
2015/12/10, 414, 131, 28, 26, 30, 18
2015/12/11, 197, 134, 6, 34, 35, 19
2015/12/12, 204, 164, 11, 42, 47, 29
2015/12/13, 241, 126, 20, 28, 32, 17
2015/12/14, 182, 70, 24, 27, 27, 16
2015/12/15, 104, 59, 25, 25, 16, 15
2015/12/16, 86, 108, 17, 41, 41, 27
2015/12/17, 160, 137, 11, 52, 53, 32
2015/12/18, 191, 171, 12, 63, 61, 43
2015/12/19, 239, 340, 15, 79, 56, 50
2015/12/20, 334, 364, 12, 77, 52, 47
2015/12/21, 380, 225, 16, 55, 40, 35
2015/12/22, 317, 702, 5, 88, 50, 66
2015/12/23, 558, 977, 4, 90, 41, 71
2015/12/24, 674, 113, 34, 36, 37, 22
2015/12/25, 179, 157, 23, 48, 48, 29
2015/12/26, 195, 91, 15, 30, 18, 21
2015/12/27, 158, 150, 10, 42, 43, 31
2015/12/28, 211, 253, 26, 51, 55, 40
2015/12/29, 296, 269, 21, 50, 52, 53
2015/12/30, 299, , , , , 
2015/7/1, 146, 83, 56, 25, 19, 8
2015/7/2, 107, 105, 96, 34, 38, 12
2015/7/3, 143, 112, 88, 30, 18, 12
2015/7/4, 181, 111, 106, 26, 32, 12
2015/7/5, 175, 113, 78, 26, 28, 9
2015/7/6, 179, 121, 106, 25, 30, 11
2015/7/7, 196, 164, 102, 27, 16, 14
2015/7/8, 222, 104, 90, 13, 13, 7
2015/7/9, 161, 85, 86, 20, 29, 9
2015/7/10, 132, 63, 34, 13, 8, 7
2015/7/11, 120, 106, 76, 20, 20, 10
2015/7/12, 172, 108, 95, 27, 34, 12
2015/7/13, 171, 162, 140, 22, 28, 14
2015/7/14, 176, 67, 55, 16, 14, 8
2015/7/15, 144, 82, 73, 25, 22, 12
2015/7/16, 163, 110, 58, 26, 22, 15
2015/7/17, 181, 111, 66, 24, 13, 12
2015/7/18, 190, 72, 53, 13, 10, 7
2015/7/19, 145, 97, 58, 24, 12, 11
2015/7/20, 164, 81, 97, 19, 22, 10
2015/7/21, 154, 88, 70, 27, 16, 11
2015/7/22, 151, 96, 70, 22, 13, 12
2015/7/23, 161, 93, 81, 18, 10, 11
2015/7/24, 159, 69, 61, 16, 10, 9
2015/7/25, 138, 118, 53, 19, 7, 10
2015/7/26, 182, 74, 36, 13, 9, 7
2015/7/27, 137, 73, 47, 15, 8, 8
2015/7/28, 131, 66, 49, 17, 9, 6
2015/7/29, 99, 70, 42, 17, 11, 7
2015/7/30, 104, 78, 30, 18, 11, 7
2015/7/31, 127, 95, 29, 18, 7, 11
2015/8/1, 168, 91, 50, 16, 8, 9
2015/8/2, 156, 66, 58, 13, 8, 8
2015/8/3, 114, 51, 44, 14, 12, 9
2015/8/4, 120, 55, 16, 14, 12, 8
2015/8/5, 103, 88, , 15, 10, 8
2015/8/6, 140, 92, , 21, 11, 11
2015/8/7, 158, 102, , 20, 12, 13
2015/8/8, 172, 91, 25, 14, 9, 9
2015/8/9, 156, 78, 10, 16, 16, 10
2015/8/10, 144, 116, 23, 28, 19, 13
2015/8/11, 179, 160, , 32, 24, 14
2015/8/12, 206, 107, , 20, 23, 9
2015/8/13, 178, 94, , 25, 17, 10
2015/8/14, 157, 95, 31, 22, 15, 12
2015/8/15, 163, 102, 65, 18, 16, 10
2015/8/16, 170, 106, 42, 18, 15, 10
2015/8/17, 174, 122, 3, 20, 13, 10
2015/8/18, 169, 58, 10, 14, 13, 6
2015/8/19, 111, 82, , 23, 17, 8
2015/8/20, 144, 120, 10, 25, 21, 13
2015/8/21, 182, 153, 16, 20, 22, 10
2015/8/22, 185, 81, , 22, 24, 10
2015/8/23, 147, 72, , 21, 18, 11
2015/8/24, 125, 74, , 23, 24, 11
2015/8/25, 128, 89, 32, 21, 24, 11
2015/8/26, 145, 76, 71, 27, 21, 8
2015/8/27, 142, 111, 10, 25, 19, 11
2015/8/28, 174, 73, 47, 15, 11, 7
2015/8/29, 139, 69, 47, 13, 8, 5
2015/8/30, 142, 60, 66, 14, 10, 7
2015/8/31, 117, 56, 51, 14, 6, 10
2015/9/1, 118, 45, 43, 15, 10, 6
2015/9/2, 83, 71, 9, 22, 10, 8
2015/9/3, 118, 58, 30, 10, 7, 6
2015/9/4, 116, 77, 19, 11, 11, 6
2015/9/5, 149, 66, , 11, 7, 9
2015/9/6, 145, 80, 28, 25, 32, 12
2015/9/7, 152, 84, , 33, 25, 10
2015/9/8, 147, 95, 15, 30, 15, 11
2015/9/9, 149, 93, , 25, 19, 13
2015/9/10, 172, 64, , 20, 9, 11
2015/9/11, 124, 73, , 25, 20, 8
2015/9/12, 120, 99, , 34, 37, 11
2015/9/13, 152, 77, 44, 19, 18, 5
2015/9/14, 139, 83, , 27, 22, 9
2015/9/15, 132, 122, 4, 40, 27, 12
2015/9/16, 179, 110, , 38, 26, 11
2015/9/17, 160, 109, , 33, 37, 11
2015/9/18, 167, 158, , 49, 41, 31
2015/9/19, 221, , , , , 
2015/9/21, 156, 105, 7, 15, 12, 9
2015/9/22, 171, 134, , 34, 35, 19
2015/9/23, 192, 137, 17, 39, 33, 15
2015/9/24, 209, 100, 1, 24, 29, 9
2015/9/25, 167, 97, , 32, 42, 11
2015/9/26, 159, 154, , 40, 28, 14
2015/9/27, 235, 129, , 26, 25, 11
2015/9/28, 215, 95, , 25, 16, 11
2015/9/29, 174, 69, 2, 25, 19, 9
2015/9/30, 131, 82, 25, 14, 13, 3
2015/4/1, 112, 72, 21, 26, 11, 11
2015/4/2, 154, 109, 46, 25, 22, 13
2015/4/3, 194, 113, 46, 30, 19, 13
2015/4/4, 194, 185, 29, 40, 27, 21
2015/4/5, 252, 135, 29, 27, 20, 10
2015/4/6, 175, 74, 41, 22, 23, 6
2015/4/7, 149, 88, 42, 20, 18, 7
2015/4/8, 165, 104, 44, 24, 25, 9
2015/4/9, 171, 148, 72, 27, 27, 12
2015/4/10, 210, 109, 44, 23, 27, 8
2015/4/11, 174, 95, 41, 17, 16, 6
2015/4/12, 128, 81, 64, 27, 32, 9
2015/4/13, 132, 101, 64, 29, 39, 10
2015/4/14, 162, 105, 64, 27, 37, 8
2015/4/15, 147, 197, 45, 18, 26, 4
2015/4/16, 142, 143, 43, 27, 32, 7
2015/4/17, 155, 167, 23, 38, 36, 16
2015/4/18, 189, 93, 47, 23, 14, 10
2015/4/19, 164, 115, 71, 21, 27, 12
2015/4/20, 182, 106, 51, 27, 43, 9
2015/4/21, 161, 105, 67, 25, 22, 10
2015/4/22, 152, 126, 73, 32, 37, 11
2015/4/23, 169, 149, 91, 32, 32, 11
2015/4/24, 181, 234, 102, 32, 33, 13
2015/4/25, 243, 117, 83, 28, 34, 10
2015/4/26, 175, 84, 71, 15, 23, 8
2015/4/27, 155, 152, 65, 28, 32, 12
2015/4/28, 180, 104, 93, 30, 35, 10
2015/4/29, 175, 115, 83, 24, 29, 10
2015/4/30, 175, 102, 51, 22, 29, 9
2015/5/1, 179, 57, 54, 17, 14, 9
2015/5/2, 139, 131, 40, 31, 25, 15
2015/5/3, 219, 101, 57, 25, 29, 8
2015/5/4, 159, 110, 83, 22, 31, 10
2015/5/5, 177, 116, 45, 23, 20, 11
2015/5/6, 180, 124, 46, 26, 35, 13
2015/5/7, 184, 88, 62, 12, 29, 7
2015/5/8, 153, 94, 27, 19, 16, 9
2015/5/9, 171, 89, 13, 28, 20, 16
2015/5/10, 170, 81, 45, 17, 21, 9
2015/5/11, 127, 96, 75, 15, 36, 5
2015/5/12, 112, 127, 97, 25, 41, 9
2015/5/13, 170, 145, 47, 29, 27, 8
2015/5/14, 157, 149, 93, 23, 29, 8
2015/5/15, 159, 134, 106, 26, 31, 8
2015/5/16, 178, 133, 71, 20, 35, 10
2015/5/17, 193, 129, 92, 23, 30, 9
2015/5/18, 175, 185, 88, 29, 34, 10
2015/5/19, 171, 93, 77, 26, 27, 8
2015/5/20, 113, 123, 28, 43, 51, 10
2015/5/21, 155, 83, 90, 18, 43, 9
2015/5/22, 156, 116, 98, 18, 22, 9
2015/5/23, 180, 104, 120, 19, 25, 8
2015/5/24, 172, 102, 121, 20, 20, 9
2015/5/25, 168, 130, 82, 22, 21, 10
2015/5/26, 189, 106, 109, 17, 19, 9
2015/5/27, 182, 110, 63, 16, 18, 9
2015/5/28, 185, 98, 35, 26, 20, 13
2015/5/29, 176, 106, 96, 24, 27, 15
2015/5/30, 169, 124, 116, 26, 38, 11
2015/5/31, 178, 131, 66, 21, 32, 12
2015/6/1, 195, 115, 65, 24, 25, 10
2015/6/2, 147, 96, 80, 28, 36, 10
2015/6/3, 131, 108, 50, 18, 28, 9
2015/6/4, 162, 129, 63, 17, 31, 5
2015/6/5, 145, 126, 104, 23, 41, 7
2015/6/6, 147, 128, 127, 22, 32, 11
2015/6/7, 160, 94, 112, 26, 35, 12
2015/6/8, 141, 122, 128, 28, 29, 11
2015/6/9, 159, 151, 103, 14, 17, 8
2015/6/10, 169, 94, 51, 14, 13, 4
2015/6/11, 99, 117, 87, 25, 36, 8
2015/6/12, 154, 97, 113, 23, 33, 9
2015/6/13, 156, 93, 103, 16, 21, 10
2015/6/14, 134, 120, 68, 33, 33, 12
2015/6/15, 186, 93, 100, 14, 35, 10
2015/6/16, 174, 117, 141, 16, 24, 12
2015/6/17, 200, 113, 117, 30, 34, 13
2015/6/18, 169, 135, 113, 32, 27, 12
2015/6/19, 188, 67, 83, 15, 22, 8
2015/6/20, 119, 104, 127, 28, 67, 10
2015/6/21, 166, 90, 102, 14, 18, 8
2015/6/22, 168, 85, 85, 18, 24, 8
2015/6/23, 161, 42, 43, 13, 4, 8
2015/6/24, 101, 61, 46, 19, 10, 14
2015/6/25, 125, 76, 46, 21, 9, 13
2015/6/26, 165, 60, 49, 14, 12, 8
2015/6/27, 134, 75, 62, 18, 11, 9
2015/6/28, 140, 57, 31, 12, 13, 7
2015/6/29, 110, 94, 69, 18, 14, 10
2015/6/30, 143, 83, 87, 18, 20, 9
2015/1/1, 172, 132, 13, 35, 64, 19
2015/1/2, 197, 226, 6, 45, 85, 33
2015/1/3, 281, 319, 12, 54, 66, 47
2015/1/4, 350, 328, 7, 69, 84, 52
2015/1/5, 400, 80, 29, 23, 40, 7
2015/1/6, 115, 89, 7, 31, 43, 15
2015/1/7, 164, 170, 5, 47, 63, 39
2015/1/8, 223, 169, 13, 50, 61, 43
2015/1/9, 244, 165, 30, 46, 64, 35
2015/1/10, 237, 145, 13, 44, 57, 30
2015/1/11, 213, 86, 19, 33, 48, 17
2015/1/12, 167, 92, 22, 27, 35, 15
2015/1/13, 176, 129, 16, 31, 52, 14
2015/1/14, 212, 182, 27, 40, 58, 27
2015/1/15, 314, 213, 5, 39, 39, 29
2015/1/16, 281, 104, 14, 35, 39, 16
2015/1/17, 178, 90, 30, 23, 39, 8
2015/1/18, 140, 95, 28, 33, 52, 22
2015/1/19, 149, 120, 34, 40, 54, 23
2015/1/20, 202, 112, 24, 36, 49, 23
2015/1/21, 188, 93, 73, 30, 43, 14
2015/1/22, 164, 134, 47, 42, 54, 18
2015/1/23, 196, 149, 5, 45, 56, 34
2015/1/24, 256, 125, 3, 33, 37, 28
2015/1/25, 215, 195, 7, 30, 37, 27
2015/1/26, 257, 71, 17, 18, 23, 10
2015/1/27, 152, 54, 36, 19, 29, 8
2015/1/28, 118, 124, 29, 24, 46, 17
2015/1/29, 224, 166, 20, 31, 47, 28
2015/1/30, 269, 93, 25, 30, 45, 12
2015/1/31, 178, 79, 31, 26, 35, 11
2015/2/1, 160, 111, 22, 26, 36, 16
2015/2/2, 189, 175, 19, 36, 50, 29
2015/2/3, 282, 205, 55, 36, 50, 36
2015/2/4, 252, 125, 47, 35, 55, 25
2015/2/5, 184, 144, 42, 38, 61, 26
2015/2/6, 195, 143, 30, 31, 43, 22
2015/2/7, 178, 83, 32, 26, 34, 10
2015/2/8, 141, 105, 33, 32, 41, 12
2015/2/9, 167, 111, 86, 36, 57, 15
2015/2/10, 174, 108, 55, 30, 49, 14
2015/2/11, 160, 152, 42, 38, 47, 26
2015/2/12, 198, 121, 37, 36, 49, 18
2015/2/13, 182, 237, 34, 48, 46, 30
2015/2/14, 283, 226, 43, 38, 44, 28
2015/2/15, 277, 171, 40, 30, 39, 21
2015/2/16, 214, 213, 54, 21, 27, 21
2015/2/17, 255, 123, 40, 19, 38, 14
2015/2/18, 184, 146, 39, 13, 33, 11
2015/2/19, 212, 85, 30, 13, 18, 12
2015/2/20, 169, 131, 13, 19, 17, 16
2015/2/21, 209, 113, 35, 11, 14, 8
2015/2/22, 135, 136, 19, 21, 18, 13
2015/2/23, 176, 155, 21, 23, 13, 17
2015/2/24, 224, 228, 48, 28, 33, 26
2015/2/25, 270, 129, 50, 21, 29, 18
2015/2/26, 182, 80, 28, 17, 37, 9
2015/2/27, 157, 89, 27, 22, 45, 11
2015/2/28, 171, 90, 41, 22, 59, 9
2015/3/1, 146, 101, 29, 28, 56, 13
2015/3/2, 169, 120, 39, 14, 25, 6
2015/3/3, 118, 71, 44, 19, 36, 6
2015/3/4, 112, 89, 31, 23, 34, 7
2015/3/5, 158, 109, 41, 20, 31, 9
2015/3/6, 183, 115, 40, 26, 32, 11
2015/3/7, 189, 126, 26, 30, 37, 13
2015/3/8, 200, 139, 33, 24, 38, 13
2015/3/9, 190, 100, 34, 27, 43, 10
2015/3/10, 161, 120, 40, 30, 49, 13
2015/3/11, 183, 138, 40, 36, 52, 14
2015/3/12, 192, 146, 56, 39, 45, 18
2015/3/13, 200, 120, 43, 38, 40, 12
2015/3/14, 180, 173, 20, 39, 36, 19
2015/3/15, 245, 158, 40, 24, 20, 13
2015/3/16, 243, 128, 31, 24, 17, 14
2015/3/17, 204, 186, 49, 31, 36, 13
2015/3/18, 170, 153, 13, 34, 39, 18
2015/3/19, 234, 148, 37, 30, 41, 18
2015/3/20, 227, 121, 50, 25, 36, 10
2015/3/21, 175, 322, 65, 34, 44, 13
2015/3/22, 183, 145, 20, 32, 32, 10
2015/3/23, 144, 138, 44, 28, 32, 10
2015/3/24, 177, 91, 42, 27, 23, 7
2015/3/25, 159, 98, 52, 27, 27, 8
2015/3/26, 172, 110, 61, 25, 31, 8
2015/3/27, 184, 115, 54, 27, 30, 9
2015/3/28, 175, 150, 82, 32, 37, 12
2015/3/29, 179, 125, 66, 20, 23, 9
2015/3/30, 187, 89, 23, 18, 14, 11
2015/3/31, 176, 53, 33, 17, 5, 6
2014/10/1, 135, 79, 18, 23, 20, 13
2014/10/2, 149, 109, 36, 33, 32, 17
2014/10/3, 188, 143, 23, 37, 21, 21
2014/10/4, 222, 134, 36, 35, 27, 29
2014/10/5, 216, 61, 29, 30, 35, 7
2014/10/6, 126, 120, 54, 45, 35, 18
2014/10/7, 207, 130, 44, 34, 19, 16
2014/10/8, 232, 127, 43, 38, 21, 14
2014/10/9, 210, 101, 44, 32, 21, 13
2014/10/10, 185, 156, 76, 47, 30, 20
2014/10/11, 236, 70, 18, 18, 38, 5
2014/10/12, 112, 46, 21, 22, 41, 6
2014/10/13, 104, 94, 35, 38, 39, 14
2014/10/14, 171, 154, 65, 31, 41, 10
2014/10/15, 152, 69, 31, 32, 39, 9
2014/10/16, 108, 91, 55, 33, 50, 12
2014/10/17, 138, 90, 55, 45, 36, 15
2014/10/18, 161, 100, 24, 29, 24, 14
2014/10/19, 184, 127, 43, 29, 22, 18
2014/10/20, 201, 95, 38, 27, 32, 13
2014/10/21, 173, 104, 66, 28, 23, 10
2014/10/22, 176, 108, 37, 27, 23, 11
2014/10/23, 175, 85, 38, 26, 22, 9
2014/10/24, 155, 75, 42, 28, 26, 8
2014/10/25, 149, 99, 51, 27, 27, 12
2014/10/26, 156, 58, 23, 24, 30, 5
2014/10/27, 82, 73, 23, 34, 37, 6
2014/10/28, 124, 86, 19, 36, 32, 8
2014/10/29, 151, 108, 27, 38, 52, 15
2014/10/30, 172, 145, 29, 48, 56, 21
2014/10/31, 199, 166, 6, 44, 32, 19
2014/11/1, 202, 61, 30, 17, 18, 3
2014/11/2, 79, 81, 24, 27, 35, 8
2014/11/3, 122, 100, 28, 36, 46, 8
2014/11/4, 149, 120, 11, 41, 44, 18
2014/11/5, 167, 121, 23, 27, 31, 12
2014/11/6, 138, 63, 14, 24, 34, 4
2014/11/7, 98, 131, 25, 33, 37, 13
2014/11/8, 181, 161, 29, 44, 32, 18
2014/11/9, 195, 146, 13, 41, 34, 14
2014/11/10, 190, 103, 23, 27, 36, 11
2014/11/11, 153, 63, 24, 22, 40, 7
2014/11/12, 88, 97, 36, 30, 48, 12
2014/11/13, 145, 125, 41, 33, 55, 14
2014/11/14, 175, 107, 20, 28, 26, 8
2014/11/15, 182, 121, 24, 29, 32, 13
2014/11/16, 187, 154, 39, 35, 50, 17
2014/11/17, 211, 178, 35, 46, 44, 16
2014/11/18, 232, 145, 50, 43, 49, 11
2014/11/19, 209, 286, 52, 45, 54, 22
2014/11/20, 286, 471, 1, 55, 49, 39
2014/11/21, 405, 419, 18, 51, 55, 30
2014/11/22, 404, 175, 15, 41, 47, 23
2014/11/23, 277, 211, 10, 49, 59, 31
2014/11/24, 291, 226, 5, 46, 55, 24
2014/11/25, 294, 91, 13, 28, 37, 13
2014/11/26, 178, 102, 15, 28, 25, 23
2014/11/27, 191, 84, 9, 30, 36, 21
2014/11/28, 164, 57, 10, 20, 13, 12
2014/11/29, 146, 74, 13, 22, 25, 18
2014/11/30, 156, 56, 20, 15, 22, 3
2014/12/1, 80, 80, 10, 30, 45, 7
2014/12/2, 138, 105, 11, 34, 49, 18
2014/12/3, 167, 75, 21, 26, 43, 10
2014/12/4, 122, 91, 17, 32, 58, 22
2014/12/5, 155, 162, 4, 49, 73, 35
2014/12/6, 207, 136, 23, 41, 54, 27
2014/12/7, 192, 114, 20, 37, 55, 18
2014/12/8, 180, 94, 19, 32, 54, 15
2014/12/9, 170, 74, 17, 24, 44, 8
2014/12/10, 131, 94, 14, 27, 44, 14
2014/12/11, 139, 52, 25, 17, 26, 8
2014/12/12, 78, 58, 19, 29, 44, 13
2014/12/13, 99, 106, 5, 45, 61, 35
2014/12/14, 160, 121, 32, 41, 63, 35
2014/12/15, 161, 41, 25, 12, 27, 5
2014/12/16, 49, 48, 20, 23, 37, 9
2014/12/17, 72, 91, 8, 40, 61, 27
2014/12/18, 150, 91, 8, 42, 52, 21
2014/12/19, 159, 60, 16, 26, 41, 9
2014/12/20, 103, 50, 20, 18, 31, 8
2014/12/21, 69, 68, 43, 28, 49, 22
2014/12/22, 102, 111, 18, 40, 59, 38
2014/12/23, 158, 146, 74, 46, 65, 44
2014/12/24, 189, 86, 63, 39, 53, 22
2014/12/25, 157, 107, 15, 43, 48, 27
2014/12/26, 171, 119, 7, 45, 57, 30
2014/12/27, 190, 99, 37, 33, 54, 18
2014/12/28, 161, , , , , 
2014/8/10, 193, 115, 110, 23, 29, 45
2014/8/11, 196, 79, 92, 26, 31, 15
2014/8/12, 145, 69, 90, 14, 27, 13
2014/8/13, 145, 68, 81, 19, 18, 11
2014/8/14, 145, 84, 79, 25, 35, 11
2014/8/15, 146, 67, 30, 14, 9, 10
2014/8/16, 134, 52, 16, 21, 12, 11
2014/8/17, 89, 57, 29, 23, 33, 7
2014/8/18, 107, 105, 48, 29, 29, 18
2014/8/19, 153, 95, 68, 25, 26, 14
2014/8/20, 157, 85, 60, 21, 25, 12
2014/8/21, 154, 64, 53, 16, 21, 7
2014/8/22, 124, 66, 30, 20, 24, 8
2014/8/23, 122, 67, 42, 23, 26, 10
2014/8/24, 120, 72, 35, 26, 23, 9
2014/8/25, 115, 74, 37, 26, 22, 10
2014/8/26, 130, 69, 27, 23, 14, 10
2014/8/27, 142, 67, 40, 19, 17, 7
2014/8/28, 115, 49, 40, 17, 23, 6
2014/8/29, 93, 51, 19, 23, 16, 8
2014/8/30, 101, 39, 14, 18, 20, 6
2014/8/31, 91, , , , , 
2014/9/5, 109, , , , , 
2014/9/9, 138, 85, 40, 27, 30, 14
2014/9/10, 159, 67, 15, 17, 9, 8
2014/9/11, 136, 32, 18, 19, 7, 4
2014/9/12, 91, 66, 26, 28, 31, 11
2014/9/13, 145, 69, 17, 29, 16, 10
2014/9/14, 152, 31, 11, 26, 9, 7
2014/9/15, 75, 24, 6, 28, 8, 8
2014/9/16, 64, 34, 7, 27, 11, 14
2014/9/17, 95, 67, 12, 30, 28, 15
2014/9/18, 138, 79, 25, 21, 42, 13
2014/9/19, 145, 69, 30, 24, 17, 11
2014/9/20, 143, 46, 28, 19, 21, 7
2014/9/21, 86, 63, 34, 27, 16, 11
2014/9/22, 119, 77, 28, 32, 25, 10
2014/9/23, 116, 98, 19, 35, 35, 22
2014/9/24, 176, 74, 32, 32, 25, 16
2014/9/25, 150, 95, 42, 36, 29, 13
2014/9/26, 174, 124, 29, 35, 21, 16
2014/9/27, 195, 69, 13, 23, 18, 13
2014/9/28, 152, 62, 17, 20, 21, 10
2014/9/29, 135, 55, 14, 19, 19, 4
2014/9/30, 94, 70, 8, 27, 20, 9
2014/1/18, 421, , , , , 
2021/2/28, , 41, 26, 9, 5, 8
2020/3/31, , 67, 23, 18, 5, 9
2019/12/31, , 65, 18, 23, 7, 8
2018/12/31, , 119, 19, 43, 20, 21
2019/1/29, , 154, 17, 30, 11, 22
2017/9/10, , 86, , 21, 17, 11
2017/1/1, , 182, , 48, 12, 76
2016/1/3, , 179, 7, 37, 38, 40
2015/9/20, , 102, , 48, 38, 48
2014/12/31, , 105, 18, 29, 67, 15
2014/8/9, , 121, 65, 13, 10, 90
2014/9/4, , 50, 35, 8, 14, 5
2014/9/8, , 62, 14, 30, 10, 8
2014/1/17, , 459, 11, 55, 65, 30